{
  "name": "Ciudades",
  "options": {
    "idInjection": false,
    "mssql": {
      "schema": "dbo",
      "table": "ciudades"
    }
  },
  "properties": {
    "codCiud": {
      "type": "String",
      "required": true,
      "length": 5,
      "precision": null,
      "scale": null,
      "id": 1,
      "mssql": {
        "columnName": "cod_ciud",
        "dataType": "char",
        "dataLength": 5,
        "dataPrecision": null,
        "dataScale": null,
        "nullable": "NO"
      }
    },
    "nomCiud": {
      "type": "String",
      "required": false,
      "length": 25,
      "precision": null,
      "scale": null,
      "mssql": {
        "columnName": "nom_ciud",
        "dataType": "varchar",
        "dataLength": 25,
        "dataPrecision": null,
        "dataScale": null,
        "nullable": "YES"
      }
    },
    "depto": {
      "type": "String",
      "required": false,
      "length": 25,
      "precision": null,
      "scale": null,
      "mssql": {
        "columnName": "depto",
        "dataType": "varchar",
        "dataLength": 25,
        "dataPrecision": null,
        "dataScale": null,
        "nullable": "YES"
      }
    },
    "pais": {
      "type": "String",
      "required": false,
      "length": 25,
      "precision": null,
      "scale": null,
      "mssql": {
        "columnName": "pais",
        "dataType": "varchar",
        "dataLength": 25,
        "dataPrecision": null,
        "dataScale": null,
        "nullable": "YES"
      }
    },
    "tipoDoc": {
      "type": "Number",
      "required": false,
      "length": null,
      "precision": 18,
      "scale": 0,
      "mssql": {
        "columnName": "tipo_doc",
        "dataType": "numeric",
        "dataLength": null,
        "dataPrecision": 18,
        "dataScale": 0,
        "nullable": "YES"
      }
    },
    "fchaAct": {
      "type": "Date",
      "required": false,
      "length": null,
      "precision": null,
      "scale": null,
      "mssql": {
        "columnName": "fcha_act",
        "dataType": "datetime",
        "dataLength": null,
        "dataPrecision": null,
        "dataScale": null,
        "nullable": "YES"
      }
    },
    "idenUsr": {
      "type": "String",
      "required": false,
      "length": 30,
      "precision": null,
      "scale": null,
      "mssql": {
        "columnName": "iden_usr",
        "dataType": "varchar",
        "dataLength": 30,
        "dataPrecision": null,
        "dataScale": null,
        "nullable": "YES"
      }
    }
  }
}