{
  "name": "ConPago",
  "options": {
    "idInjection": false,
    "mssql": {
      "schema": "dbo",
      "table": "con_pago"
    }
  },
  "properties": {
    "condPago": {
      "type": "Number",
      "required": true,
      "length": null,
      "precision": 5,
      "scale": 0,
      "id": 1,
      "mssql": {
        "columnName": "cond_pago",
        "dataType": "smallint",
        "dataLength": null,
        "dataPrecision": 5,
        "dataScale": 0,
        "nullable": "NO"
      }
    },
    "descripPago": {
      "type": "String",
      "required": true,
      "length": 30,
      "precision": null,
      "scale": null,
      "mssql": {
        "columnName": "descrip_pago",
        "dataType": "varchar",
        "dataLength": 30,
        "dataPrecision": null,
        "dataScale": null,
        "nullable": "NO"
      }
    },
    "plazo": {
      "type": "Number",
      "required": true,
      "length": null,
      "precision": 5,
      "scale": 0,
      "mssql": {
        "columnName": "plazo",
        "dataType": "smallint",
        "dataLength": null,
        "dataPrecision": 5,
        "dataScale": 0,
        "nullable": "NO"
      }
    },
    "fchaAct": {
      "type": "Date",
      "required": true,
      "length": null,
      "precision": null,
      "scale": null,
      "mssql": {
        "columnName": "fcha_act",
        "dataType": "datetime",
        "dataLength": null,
        "dataPrecision": null,
        "dataScale": null,
        "nullable": "NO"
      }
    },
    "idenUsr": {
      "type": "String",
      "required": true,
      "length": 30,
      "precision": null,
      "scale": null,
      "mssql": {
        "columnName": "iden_usr",
        "dataType": "varchar",
        "dataLength": 30,
        "dataPrecision": null,
        "dataScale": null,
        "nullable": "NO"
      }
    }
  }
}