{
    "name": "Control",
    "options": {
        "idInjection": false,
        "mssql": {
            "schema": "dbo",
            "table": "control"
        }
    },
    "properties": {
        "factura": {
            "type": "Number",
            "required": true,
            "length": null,
            "precision": 10,
            "id": 1,
            "scale": 0,
            "mssql": {
                "columnName": "factura",
                "dataType": "numeric",
                "dataLength": null,
                "dataPrecision": 10,
                "dataScale": 0,
                "nullable": "NO"
            }
        },
        "devoluc": {
            "type": "Number",
            "required": true,
            "length": null,
            "precision": 5,
            "scale": 0,
            "mssql": {
                "columnName": "devoluc",
                "dataType": "numeric",
                "dataLength": null,
                "dataPrecision": 5,
                "dataScale": 0,
                "nullable": "NO"
            }
        },
        "cierre": {
            "type": "Number",
            "required": true,
            "length": null,
            "precision": 1,
            "scale": 0,
            "mssql": {
                "columnName": "cierre",
                "dataType": "numeric",
                "dataLength": null,
                "dataPrecision": 1,
                "dataScale": 0,
                "nullable": "NO"
            }
        },
        "fecierre": {
            "type": "Date",
            "required": true,
            "length": null,
            "precision": null,
            "scale": null,
            "mssql": {
                "columnName": "fecierre",
                "dataType": "smalldatetime",
                "dataLength": null,
                "dataPrecision": null,
                "dataScale": null,
                "nullable": "NO"
            }
        },
        "fecfac": {
            "type": "Date",
            "required": true,
            "length": null,
            "precision": null,
            "scale": null,
            "mssql": {
                "columnName": "fecfac",
                "dataType": "smalldatetime",
                "dataLength": null,
                "dataPrecision": null,
                "dataScale": null,
                "nullable": "NO"
            }
        },
        "fechafac": {
            "type": "Date",
            "required": true,
            "length": null,
            "precision": null,
            "scale": null,
            "mssql": {
                "columnName": "fechafac",
                "dataType": "smalldatetime",
                "dataLength": null,
                "dataPrecision": null,
                "dataScale": null,
                "nullable": "NO"
            }
        },
        "fchaCorteComis": {
            "type": "Date",
            "required": true,
            "length": null,
            "precision": null,
            "scale": null,
            "mssql": {
                "columnName": "fcha_corte_comis",
                "dataType": "smalldatetime",
                "dataLength": null,
                "dataPrecision": null,
                "dataScale": null,
                "nullable": "NO"
            }
        },
        "fchaGeneraComis": {
            "type": "Date",
            "required": true,
            "length": null,
            "precision": null,
            "scale": null,
            "mssql": {
                "columnName": "fcha_genera_comis",
                "dataType": "smalldatetime",
                "dataLength": null,
                "dataPrecision": null,
                "dataScale": null,
                "nullable": "NO"
            }
        },
        "fechaAjuste": {
            "type": "Date",
            "required": true,
            "length": null,
            "precision": null,
            "scale": null,
            "mssql": {
                "columnName": "fecha_ajuste",
                "dataType": "smalldatetime",
                "dataLength": null,
                "dataPrecision": null,
                "dataScale": null,
                "nullable": "NO"
            }
        },
        "formato": {
            "type": "Number",
            "required": true,
            "length": null,
            "precision": 1,
            "scale": 0,
            "mssql": {
                "columnName": "formato",
                "dataType": "numeric",
                "dataLength": null,
                "dataPrecision": 1,
                "dataScale": 0,
                "nullable": "NO"
            }
        },
        "entdev": {
            "type": "Number",
            "required": true,
            "length": null,
            "precision": 5,
            "scale": 0,
            "mssql": {
                "columnName": "entdev",
                "dataType": "numeric",
                "dataLength": null,
                "dataPrecision": 5,
                "dataScale": 0,
                "nullable": "NO"
            }
        },
        "observa1": {
            "type": "String",
            "required": true,
            "length": 120,
            "precision": null,
            "scale": null,
            "mssql": {
                "columnName": "observa1",
                "dataType": "char",
                "dataLength": 120,
                "dataPrecision": null,
                "dataScale": null,
                "nullable": "NO"
            }
        },
        "observa2": {
            "type": "String",
            "required": true,
            "length": 120,
            "precision": null,
            "scale": null,
            "mssql": {
                "columnName": "observa2",
                "dataType": "char",
                "dataLength": 120,
                "dataPrecision": null,
                "dataScale": null,
                "nullable": "NO"
            }
        },
        "iva": {
            "type": "Number",
            "required": true,
            "length": null,
            "precision": 4,
            "scale": 2,
            "mssql": {
                "columnName": "iva",
                "dataType": "numeric",
                "dataLength": null,
                "dataPrecision": 4,
                "dataScale": 2,
                "nullable": "NO"
            }
        },
        "nodebito": {
            "type": "Number",
            "required": true,
            "length": null,
            "precision": 5,
            "scale": 0,
            "mssql": {
                "columnName": "nodebito",
                "dataType": "numeric",
                "dataLength": null,
                "dataPrecision": 5,
                "dataScale": 0,
                "nullable": "NO"
            }
        },
        "porete": {
            "type": "Number",
            "required": true,
            "length": null,
            "precision": 3,
            "scale": 2,
            "mssql": {
                "columnName": "porete",
                "dataType": "numeric",
                "dataLength": null,
                "dataPrecision": 3,
                "dataScale": 2,
                "nullable": "NO"
            }
        },
        "pordes": {
            "type": "Number",
            "required": true,
            "length": null,
            "precision": 3,
            "scale": 2,
            "mssql": {
                "columnName": "pordes",
                "dataType": "numeric",
                "dataLength": null,
                "dataPrecision": 3,
                "dataScale": 2,
                "nullable": "NO"
            }
        },
        "intmora": {
            "type": "Number",
            "required": true,
            "length": null,
            "precision": 3,
            "scale": 2,
            "mssql": {
                "columnName": "intmora",
                "dataType": "numeric",
                "dataLength": null,
                "dataPrecision": 3,
                "dataScale": 2,
                "nullable": "NO"
            }
        },
        "contabil": {
            "type": "String",
            "required": true,
            "length": 1,
            "precision": null,
            "scale": null,
            "mssql": {
                "columnName": "contabil",
                "dataType": "char",
                "dataLength": 1,
                "dataPrecision": null,
                "dataScale": null,
                "nullable": "NO"
            }
        },
        "solic": {
            "type": "Number",
            "required": true,
            "length": null,
            "precision": 8,
            "scale": 0,
            "mssql": {
                "columnName": "solic",
                "dataType": "numeric",
                "dataLength": null,
                "dataPrecision": 8,
                "dataScale": 0,
                "nullable": "NO"
            }
        },
        "grabRem": {
            "type": "Boolean",
            "required": true,
            "length": null,
            "precision": null,
            "scale": null,
            "mssql": {
                "columnName": "grab_rem",
                "dataType": "bit",
                "dataLength": null,
                "dataPrecision": null,
                "dataScale": null,
                "nullable": "NO"
            }
        },
        "remision": {
            "type": "Number",
            "required": true,
            "length": null,
            "precision": 11,
            "scale": 0,
            "mssql": {
                "columnName": "remision",
                "dataType": "numeric",
                "dataLength": null,
                "dataPrecision": 11,
                "dataScale": 0,
                "nullable": "NO"
            }
        },
        "remisionNf": {
            "type": "Number",
            "required": true,
            "length": null,
            "precision": 11,
            "scale": 0,
            "mssql": {
                "columnName": "remision_nf",
                "dataType": "numeric",
                "dataLength": null,
                "dataPrecision": 11,
                "dataScale": 0,
                "nullable": "NO"
            }
        },
        "revfactura": {
            "type": "Number",
            "required": true,
            "length": null,
            "precision": 10,
            "scale": 0,
            "mssql": {
                "columnName": "revfactura",
                "dataType": "numeric",
                "dataLength": null,
                "dataPrecision": 10,
                "dataScale": 0,
                "nullable": "NO"
            }
        },
        "noOrdprod": {
            "type": "Number",
            "required": true,
            "length": null,
            "precision": 7,
            "scale": 0,
            "mssql": {
                "columnName": "no_ordprod",
                "dataType": "numeric",
                "dataLength": null,
                "dataPrecision": 7,
                "dataScale": 0,
                "nullable": "NO"
            }
        },
        "nota1": {
            "type": "String",
            "required": true,
            "length": 255,
            "precision": null,
            "scale": null,
            "mssql": {
                "columnName": "nota1",
                "dataType": "varchar",
                "dataLength": 255,
                "dataPrecision": null,
                "dataScale": null,
                "nullable": "NO"
            }
        },
        "nota2": {
            "type": "String",
            "required": true,
            "length": 255,
            "precision": null,
            "scale": null,
            "mssql": {
                "columnName": "nota2",
                "dataType": "varchar",
                "dataLength": 255,
                "dataPrecision": null,
                "dataScale": null,
                "nullable": "NO"
            }
        },
        "base": {
            "type": "Number",
            "required": true,
            "length": null,
            "precision": 5,
            "scale": 0,
            "mssql": {
                "columnName": "base",
                "dataType": "numeric",
                "dataLength": null,
                "dataPrecision": 5,
                "dataScale": 0,
                "nullable": "NO"
            }
        },
        "cotiz": {
            "type": "Number",
            "required": true,
            "length": null,
            "precision": 7,
            "scale": 0,
            "mssql": {
                "columnName": "cotiz",
                "dataType": "numeric",
                "dataLength": null,
                "dataPrecision": 7,
                "dataScale": 0,
                "nullable": "NO"
            }
        },
        "pretiva": {
            "type": "Number",
            "required": true,
            "length": null,
            "precision": 3,
            "scale": 2,
            "mssql": {
                "columnName": "pretiva",
                "dataType": "numeric",
                "dataLength": null,
                "dataPrecision": 3,
                "dataScale": 2,
                "nullable": "NO"
            }
        },
        "nufacpro": {
            "type": "Number",
            "required": true,
            "length": null,
            "precision": 7,
            "scale": 0,
            "mssql": {
                "columnName": "nufacpro",
                "dataType": "numeric",
                "dataLength": null,
                "dataPrecision": 7,
                "dataScale": 0,
                "nullable": "NO"
            }
        },
        "rc": {
            "type": "Number",
            "required": false,
            "length": null,
            "precision": 7,
            "scale": 0,
            "mssql": {
                "columnName": "rc",
                "dataType": "numeric",
                "dataLength": null,
                "dataPrecision": 7,
                "dataScale": 0,
                "nullable": "YES"
            }
        },
        "nd": {
            "type": "Number",
            "required": false,
            "length": null,
            "precision": 7,
            "scale": 0,
            "mssql": {
                "columnName": "nd",
                "dataType": "numeric",
                "dataLength": null,
                "dataPrecision": 7,
                "dataScale": 0,
                "nullable": "YES"
            }
        },
        "nc": {
            "type": "Number",
            "required": false,
            "length": null,
            "precision": 7,
            "scale": 0,
            "mssql": {
                "columnName": "nc",
                "dataType": "numeric",
                "dataLength": null,
                "dataPrecision": 7,
                "dataScale": 0,
                "nullable": "YES"
            }
        },
        "basRet": {
            "type": "Number",
            "required": false,
            "length": null,
            "precision": 18,
            "scale": 0,
            "mssql": {
                "columnName": "bas_ret",
                "dataType": "numeric",
                "dataLength": null,
                "dataPrecision": 18,
                "dataScale": 0,
                "nullable": "YES"
            }
        },
        "prtfte": {
            "type": "Number",
            "required": false,
            "length": null,
            "precision": 5,
            "scale": 4,
            "mssql": {
                "columnName": "prtfte",
                "dataType": "numeric",
                "dataLength": null,
                "dataPrecision": 5,
                "dataScale": 4,
                "nullable": "YES"
            }
        },
        "notaFactura1": {
            "type": "String",
            "required": false,
            "length": 255,
            "precision": null,
            "scale": null,
            "mssql": {
                "columnName": "nota_factura1",
                "dataType": "varchar",
                "dataLength": 255,
                "dataPrecision": null,
                "dataScale": null,
                "nullable": "YES"
            }
        },
        "notaFactura2": {
            "type": "String",
            "required": false,
            "length": 255,
            "precision": null,
            "scale": null,
            "mssql": {
                "columnName": "nota_factura2",
                "dataType": "varchar",
                "dataLength": 255,
                "dataPrecision": null,
                "dataScale": null,
                "nullable": "YES"
            }
        },
        "noMontaje": {
            "type": "Number",
            "required": false,
            "length": null,
            "precision": 8,
            "scale": 0,
            "mssql": {
                "columnName": "no_montaje",
                "dataType": "numeric",
                "dataLength": null,
                "dataPrecision": 8,
                "dataScale": 0,
                "nullable": "YES"
            }
        },
        "numsol": {
            "type": "Number",
            "required": false,
            "length": null,
            "precision": 9,
            "scale": 0,
            "mssql": {
                "columnName": "numsol",
                "dataType": "numeric",
                "dataLength": null,
                "dataPrecision": 9,
                "dataScale": 0,
                "nullable": "YES"
            }
        },
        "numplan": {
            "type": "Number",
            "required": false,
            "length": null,
            "precision": 8,
            "scale": 0,
            "mssql": {
                "columnName": "numplan",
                "dataType": "numeric",
                "dataLength": null,
                "dataPrecision": 8,
                "dataScale": 0,
                "nullable": "YES"
            }
        },
        "numsolCotiz": {
            "type": "Number",
            "required": false,
            "length": null,
            "precision": 8,
            "scale": 0,
            "mssql": {
                "columnName": "numsol_cotiz",
                "dataType": "numeric",
                "dataLength": null,
                "dataPrecision": 8,
                "dataScale": 0,
                "nullable": "YES"
            }
        },
        "numsolSis": {
            "type": "Number",
            "required": false,
            "length": null,
            "precision": 8,
            "scale": 0,
            "mssql": {
                "columnName": "numsol_sis",
                "dataType": "numeric",
                "dataLength": null,
                "dataPrecision": 8,
                "dataScale": 0,
                "nullable": "YES"
            }
        },
        "pruebaSis": {
            "type": "Number",
            "required": false,
            "length": null,
            "precision": 8,
            "scale": 0,
            "mssql": {
                "columnName": "prueba_sis",
                "dataType": "numeric",
                "dataLength": null,
                "dataPrecision": 8,
                "dataScale": 0,
                "nullable": "YES"
            }
        },
        "fchaAct": {
            "type": "Date",
            "required": false,
            "length": null,
            "precision": null,
            "scale": null,
            "mssql": {
                "columnName": "fcha_act",
                "dataType": "datetime",
                "dataLength": null,
                "dataPrecision": null,
                "dataScale": null,
                "nullable": "YES"
            }
        },
        "idenUsr": {
            "type": "String",
            "required": false,
            "length": 30,
            "precision": null,
            "scale": null,
            "mssql": {
                "columnName": "iden_usr",
                "dataType": "varchar",
                "dataLength": 30,
                "dataPrecision": null,
                "dataScale": null,
                "nullable": "YES"
            }
        },
        "baseRetserv": {
            "type": "Number",
            "required": false,
            "length": null,
            "precision": 18,
            "scale": 0,
            "mssql": {
                "columnName": "base_retserv",
                "dataType": "numeric",
                "dataLength": null,
                "dataPrecision": 18,
                "dataScale": 0,
                "nullable": "YES"
            }
        },
        "prtfteServ": {
            "type": "Number",
            "required": false,
            "length": null,
            "precision": 5,
            "scale": 4,
            "mssql": {
                "columnName": "prtfte_serv",
                "dataType": "numeric",
                "dataLength": null,
                "dataPrecision": 5,
                "dataScale": 4,
                "nullable": "YES"
            }
        },
        "guia": {
            "type": "Number",
            "required": false,
            "length": null,
            "precision": 12,
            "scale": 0,
            "mssql": {
                "columnName": "guia",
                "dataType": "numeric",
                "dataLength": null,
                "dataPrecision": 12,
                "dataScale": 0,
                "nullable": "YES"
            }
        },
        "resolucionNofactura": {
            "type": "Number",
            "required": false,
            "length": null,
            "precision": 10,
            "scale": 0,
            "mssql": {
                "columnName": "resolucion_nofactura",
                "dataType": "numeric",
                "dataLength": null,
                "dataPrecision": 10,
                "dataScale": 0,
                "nullable": "YES"
            }
        },
        "resolucionFechafac": {
            "type": "Date",
            "required": false,
            "length": null,
            "precision": null,
            "scale": null,
            "mssql": {
                "columnName": "resolucion_fechafac",
                "dataType": "smalldatetime",
                "dataLength": null,
                "dataPrecision": null,
                "dataScale": null,
                "nullable": "YES"
            }
        },
        "diasComis": {
            "type": "Number",
            "required": false,
            "length": null,
            "precision": 10,
            "scale": 0,
            "mssql": {
                "columnName": "dias_comis",
                "dataType": "numeric",
                "dataLength": null,
                "dataPrecision": 10,
                "dataScale": 0,
                "nullable": "YES"
            }
        },
        "cierreCostos": {
            "type": "Date",
            "required": false,
            "length": null,
            "precision": null,
            "scale": null,
            "mssql": {
                "columnName": "cierre_costos",
                "dataType": "smalldatetime",
                "dataLength": null,
                "dataPrecision": null,
                "dataScale": null,
                "nullable": "YES"
            }
        },
        "numordremi": {
            "type": "Number",
            "required": false,
            "length": null,
            "precision": 10,
            "scale": 0,
            "mssql": {
                "columnName": "NumOrdRemi",
                "dataType": "numeric",
                "dataLength": null,
                "dataPrecision": 10,
                "dataScale": 0,
                "nullable": "YES"
            }
        },
        "grabOrdremi": {
            "type": "Boolean",
            "required": false,
            "length": null,
            "precision": null,
            "scale": null,
            "mssql": {
                "columnName": "grab_ordRemi",
                "dataType": "bit",
                "dataLength": null,
                "dataPrecision": null,
                "dataScale": null,
                "nullable": "YES"
            }
        },
        "ordtrabPerso": {
            "type": "Number",
            "required": false,
            "length": null,
            "precision": 10,
            "scale": 0,
            "mssql": {
                "columnName": "ordtrab_perso",
                "dataType": "numeric",
                "dataLength": null,
                "dataPrecision": 10,
                "dataScale": 0,
                "nullable": "YES"
            }
        },
        "actaDestruc": {
            "type": "Number",
            "required": false,
            "length": null,
            "precision": 10,
            "scale": 0,
            "mssql": {
                "columnName": "acta_destruc",
                "dataType": "numeric",
                "dataLength": null,
                "dataPrecision": 10,
                "dataScale": 0,
                "nullable": "YES"
            }
        },
        "anexoOped": {
            "type": "Number",
            "required": false,
            "length": null,
            "precision": 10,
            "scale": 0,
            "mssql": {
                "columnName": "anexo_oped",
                "dataType": "numeric",
                "dataLength": null,
                "dataPrecision": 10,
                "dataScale": 0,
                "nullable": "YES"
            }
        },
        "ptjeCree": {
            "type": "Number",
            "required": false,
            "length": null,
            "precision": 5,
            "scale": 4,
            "mssql": {
                "columnName": "ptje_cree",
                "dataType": "numeric",
                "dataLength": null,
                "dataPrecision": 5,
                "dataScale": 4,
                "nullable": "YES"
            }
        },
        "eninst": {
            "type": "Boolean",
            "required": false,
            "length": null,
            "precision": null,
            "scale": null,
            "mssql": {
                "columnName": "enInst",
                "dataType": "bit",
                "dataLength": null,
                "dataPrecision": null,
                "dataScale": null,
                "nullable": "YES"
            }
        },
        "rutaorigen": {
            "type": "String",
            "required": false,
            "length": 255,
            "precision": null,
            "scale": null,
            "mssql": {
                "columnName": "rutaOrigen",
                "dataType": "varchar",
                "dataLength": 255,
                "dataPrecision": null,
                "dataScale": null,
                "nullable": "YES"
            }
        },
        "rutadestino": {
            "type": "String",
            "required": false,
            "length": 255,
            "precision": null,
            "scale": null,
            "mssql": {
                "columnName": "rutaDestino",
                "dataType": "varchar",
                "dataLength": 255,
                "dataPrecision": null,
                "dataScale": null,
                "nullable": "YES"
            }
        },
        "ordPerso": {
            "type": "Boolean",
            "required": false,
            "length": null,
            "precision": null,
            "scale": null,
            "mssql": {
                "columnName": "ord_perso",
                "dataType": "bit",
                "dataLength": null,
                "dataPrecision": null,
                "dataScale": null,
                "nullable": "YES"
            }
        },
        "iniBasecot": {
            "type": "Number",
            "required": false,
            "length": null,
            "precision": 18,
            "scale": 0,
            "mssql": {
                "columnName": "ini_BaseCot",
                "dataType": "numeric",
                "dataLength": null,
                "dataPrecision": 18,
                "dataScale": 0,
                "nullable": "YES"
            }
        },
        "iniCotiza": {
            "type": "Number",
            "required": false,
            "length": null,
            "precision": 18,
            "scale": 0,
            "mssql": {
                "columnName": "ini_Cotiza",
                "dataType": "numeric",
                "dataLength": null,
                "dataPrecision": 18,
                "dataScale": 0,
                "nullable": "YES"
            }
        },
        "solicCotiz": {
            "type": "Boolean",
            "required": false,
            "length": null,
            "precision": null,
            "scale": null,
            "mssql": {
                "columnName": "solic_cotiz",
                "dataType": "bit",
                "dataLength": null,
                "dataPrecision": null,
                "dataScale": null,
                "nullable": "YES"
            }
        },
        "baseCot": {
            "type": "Boolean",
            "required": false,
            "length": null,
            "precision": null,
            "scale": null,
            "mssql": {
                "columnName": "base_cot",
                "dataType": "bit",
                "dataLength": null,
                "dataPrecision": null,
                "dataScale": null,
                "nullable": "YES"
            }
        },
        "oped": {
            "type": "Boolean",
            "required": false,
            "length": null,
            "precision": null,
            "scale": null,
            "mssql": {
                "columnName": "oped",
                "dataType": "bit",
                "dataLength": null,
                "dataPrecision": null,
                "dataScale": null,
                "nullable": "YES"
            }
        }
    }
}