{
    "name": "EsqMat",
    "options": {
        "idInjection": false,
        "mssql": {
            "schema": "dbo",
            "table": "esq_mat"
        }
    },
    "properties": {
        "nesquel": {
            "type": "Number",
            "required": true,
            "length": null,
            "precision": 5,
            "id": 1,
            "scale": 0,
            "mssql": {
                "columnName": "nesquel",
                "dataType": "numeric",
                "dataLength": null,
                "dataPrecision": 5,
                "dataScale": 0,
                "nullable": "NO"
            }
        },
        "nolinea": {
            "type": "Number",
            "required": true,
            "length": null,
            "precision": 6,
            "scale": 0,
            "mssql": {
                "columnName": "nolinea",
                "dataType": "numeric",
                "dataLength": null,
                "dataPrecision": 6,
                "dataScale": 0,
                "nullable": "NO"
            }
        },
        "noItem": {
            "type": "Number",
            "required": true,
            "length": null,
            "precision": 2,
            "scale": 0,
            "mssql": {
                "columnName": "no_item",
                "dataType": "numeric",
                "dataLength": null,
                "dataPrecision": 2,
                "dataScale": 0,
                "nullable": "NO"
            }
        },
        "codSust": {
            "type": "String",
            "required": true,
            "length": 10,
            "precision": null,
            "scale": null,
            "mssql": {
                "columnName": "cod_sust",
                "dataType": "char",
                "dataLength": 10,
                "dataPrecision": null,
                "dataScale": null,
                "nullable": "NO"
            }
        },
        "nomSus": {
            "type": "String",
            "required": true,
            "length": 200,
            "precision": null,
            "scale": null,
            "mssql": {
                "columnName": "nom_sus",
                "dataType": "varchar",
                "dataLength": 200,
                "dataPrecision": null,
                "dataScale": null,
                "nullable": "NO"
            }
        },
        "unidad": {
            "type": "String",
            "required": false,
            "length": 10,
            "precision": null,
            "scale": null,
            "mssql": {
                "columnName": "unidad",
                "dataType": "char",
                "dataLength": 10,
                "dataPrecision": null,
                "dataScale": null,
                "nullable": "YES"
            }
        },
        "ancho": {
            "type": "Number",
            "required": false,
            "length": null,
            "precision": 8,
            "scale": 4,
            "mssql": {
                "columnName": "ancho",
                "dataType": "numeric",
                "dataLength": null,
                "dataPrecision": 8,
                "dataScale": 4,
                "nullable": "YES"
            }
        },
        "largo": {
            "type": "Number",
            "required": false,
            "length": null,
            "precision": 8,
            "scale": 4,
            "mssql": {
                "columnName": "largo",
                "dataType": "numeric",
                "dataLength": null,
                "dataPrecision": 8,
                "dataScale": 4,
                "nullable": "YES"
            }
        },
        "calibre": {
            "type": "Number",
            "required": false,
            "length": null,
            "precision": 8,
            "scale": 4,
            "mssql": {
                "columnName": "calibre",
                "dataType": "numeric",
                "dataLength": null,
                "dataPrecision": 8,
                "dataScale": 4,
                "nullable": "YES"
            }
        },
        "densidad": {
            "type": "Number",
            "required": false,
            "length": null,
            "precision": 8,
            "scale": 4,
            "mssql": {
                "columnName": "densidad",
                "dataType": "numeric",
                "dataLength": null,
                "dataPrecision": 8,
                "dataScale": 4,
                "nullable": "YES"
            }
        },
        "uniOri": {
            "type": "String",
            "required": false,
            "length": 10,
            "precision": null,
            "scale": null,
            "mssql": {
                "columnName": "uni_ori",
                "dataType": "char",
                "dataLength": 10,
                "dataPrecision": null,
                "dataScale": null,
                "nullable": "YES"
            }
        },
        "valSus": {
            "type": "Number",
            "required": false,
            "length": null,
            "precision": 12,
            "scale": 3,
            "mssql": {
                "columnName": "val_sus",
                "dataType": "numeric",
                "dataLength": null,
                "dataPrecision": 12,
                "dataScale": 3,
                "nullable": "YES"
            }
        },
        "valOri": {
            "type": "Number",
            "required": false,
            "length": null,
            "precision": 12,
            "scale": 3,
            "mssql": {
                "columnName": "val_ori",
                "dataType": "numeric",
                "dataLength": null,
                "dataPrecision": 12,
                "dataScale": 3,
                "nullable": "YES"
            }
        },
        "promedio": {
            "type": "Number",
            "required": false,
            "length": null,
            "precision": 10,
            "scale": 3,
            "mssql": {
                "columnName": "promedio",
                "dataType": "numeric",
                "dataLength": null,
                "dataPrecision": 10,
                "dataScale": 3,
                "nullable": "YES"
            }
        },
        "prvSus": {
            "type": "Number",
            "required": false,
            "length": null,
            "precision": 11,
            "scale": 0,
            "mssql": {
                "columnName": "prv_sus",
                "dataType": "numeric",
                "dataLength": null,
                "dataPrecision": 11,
                "dataScale": 0,
                "nullable": "YES"
            }
        },
        "noEmaq": {
            "type": "Number",
            "required": false,
            "length": null,
            "precision": 1,
            "scale": 0,
            "mssql": {
                "columnName": "no_emaq",
                "dataType": "numeric",
                "dataLength": null,
                "dataPrecision": 1,
                "dataScale": 0,
                "nullable": "YES"
            }
        },
        "tiro": {
            "type": "Boolean",
            "required": false,
            "length": null,
            "precision": null,
            "scale": null,
            "mssql": {
                "columnName": "tiro",
                "dataType": "bit",
                "dataLength": null,
                "dataPrecision": null,
                "dataScale": null,
                "nullable": "YES"
            }
        },
        "retiro": {
            "type": "Boolean",
            "required": false,
            "length": null,
            "precision": null,
            "scale": null,
            "mssql": {
                "columnName": "retiro",
                "dataType": "bit",
                "dataLength": null,
                "dataPrecision": null,
                "dataScale": null,
                "nullable": "YES"
            }
        },
        "cabida": {
            "type": "Number",
            "required": false,
            "length": null,
            "precision": 8,
            "scale": 1,
            "mssql": {
                "columnName": "cabida",
                "dataType": "numeric",
                "dataLength": null,
                "dataPrecision": 8,
                "dataScale": 1,
                "nullable": "YES"
            }
        },
        "cant1": {
            "type": "Number",
            "required": false,
            "length": null,
            "precision": 14,
            "scale": 2,
            "mssql": {
                "columnName": "cant1",
                "dataType": "numeric",
                "dataLength": null,
                "dataPrecision": 14,
                "dataScale": 2,
                "nullable": "YES"
            }
        },
        "tiraje1": {
            "type": "Number",
            "required": false,
            "length": null,
            "precision": 9,
            "scale": 0,
            "mssql": {
                "columnName": "tiraje1",
                "dataType": "numeric",
                "dataLength": null,
                "dataPrecision": 9,
                "dataScale": 0,
                "nullable": "YES"
            }
        },
        "cant2": {
            "type": "Number",
            "required": false,
            "length": null,
            "precision": 14,
            "scale": 2,
            "mssql": {
                "columnName": "cant2",
                "dataType": "numeric",
                "dataLength": null,
                "dataPrecision": 14,
                "dataScale": 2,
                "nullable": "YES"
            }
        },
        "tiraje2": {
            "type": "Number",
            "required": false,
            "length": null,
            "precision": 9,
            "scale": 0,
            "mssql": {
                "columnName": "tiraje2",
                "dataType": "numeric",
                "dataLength": null,
                "dataPrecision": 9,
                "dataScale": 0,
                "nullable": "YES"
            }
        },
        "cant3": {
            "type": "Number",
            "required": false,
            "length": null,
            "precision": 14,
            "scale": 2,
            "mssql": {
                "columnName": "cant3",
                "dataType": "numeric",
                "dataLength": null,
                "dataPrecision": 14,
                "dataScale": 2,
                "nullable": "YES"
            }
        },
        "tiraje3": {
            "type": "Number",
            "required": false,
            "length": null,
            "precision": 9,
            "scale": 0,
            "mssql": {
                "columnName": "tiraje3",
                "dataType": "numeric",
                "dataLength": null,
                "dataPrecision": 9,
                "dataScale": 0,
                "nullable": "YES"
            }
        },
        "cant4": {
            "type": "Number",
            "required": false,
            "length": null,
            "precision": 14,
            "scale": 2,
            "mssql": {
                "columnName": "cant4",
                "dataType": "numeric",
                "dataLength": null,
                "dataPrecision": 14,
                "dataScale": 2,
                "nullable": "YES"
            }
        },
        "tiraje4": {
            "type": "Number",
            "required": false,
            "length": null,
            "precision": 9,
            "scale": 0,
            "mssql": {
                "columnName": "tiraje4",
                "dataType": "numeric",
                "dataLength": null,
                "dataPrecision": 9,
                "dataScale": 0,
                "nullable": "YES"
            }
        },
        "cant5": {
            "type": "Number",
            "required": false,
            "length": null,
            "precision": 14,
            "scale": 2,
            "mssql": {
                "columnName": "cant5",
                "dataType": "numeric",
                "dataLength": null,
                "dataPrecision": 14,
                "dataScale": 2,
                "nullable": "YES"
            }
        },
        "tiraje5": {
            "type": "Number",
            "required": false,
            "length": null,
            "precision": 9,
            "scale": 0,
            "mssql": {
                "columnName": "tiraje5",
                "dataType": "numeric",
                "dataLength": null,
                "dataPrecision": 9,
                "dataScale": 0,
                "nullable": "YES"
            }
        },
        "cant6": {
            "type": "Number",
            "required": false,
            "length": null,
            "precision": 14,
            "scale": 2,
            "mssql": {
                "columnName": "cant6",
                "dataType": "numeric",
                "dataLength": null,
                "dataPrecision": 14,
                "dataScale": 2,
                "nullable": "YES"
            }
        },
        "tiraje6": {
            "type": "Number",
            "required": false,
            "length": null,
            "precision": 9,
            "scale": 0,
            "mssql": {
                "columnName": "tiraje6",
                "dataType": "numeric",
                "dataLength": null,
                "dataPrecision": 9,
                "dataScale": 0,
                "nullable": "YES"
            }
        },
        "tmater": {
            "type": "String",
            "required": false,
            "length": 1,
            "precision": null,
            "scale": null,
            "mssql": {
                "columnName": "tmater",
                "dataType": "char",
                "dataLength": 1,
                "dataPrecision": null,
                "dataScale": null,
                "nullable": "YES"
            }
        },
        "pordesp": {
            "type": "Number",
            "required": false,
            "length": null,
            "precision": 7,
            "scale": 2,
            "mssql": {
                "columnName": "pordesp",
                "dataType": "numeric",
                "dataLength": null,
                "dataPrecision": 7,
                "dataScale": 2,
                "nullable": "YES"
            }
        },
        "pordesp2": {
            "type": "Number",
            "required": false,
            "length": null,
            "precision": 7,
            "scale": 2,
            "mssql": {
                "columnName": "pordesp2",
                "dataType": "numeric",
                "dataLength": null,
                "dataPrecision": 7,
                "dataScale": 2,
                "nullable": "YES"
            }
        },
        "pordesp3": {
            "type": "Number",
            "required": false,
            "length": null,
            "precision": 7,
            "scale": 2,
            "mssql": {
                "columnName": "pordesp3",
                "dataType": "numeric",
                "dataLength": null,
                "dataPrecision": 7,
                "dataScale": 2,
                "nullable": "YES"
            }
        },
        "pordesp4": {
            "type": "Number",
            "required": false,
            "length": null,
            "precision": 7,
            "scale": 2,
            "mssql": {
                "columnName": "pordesp4",
                "dataType": "numeric",
                "dataLength": null,
                "dataPrecision": 7,
                "dataScale": 2,
                "nullable": "YES"
            }
        },
        "pordesp5": {
            "type": "Number",
            "required": false,
            "length": null,
            "precision": 7,
            "scale": 2,
            "mssql": {
                "columnName": "pordesp5",
                "dataType": "numeric",
                "dataLength": null,
                "dataPrecision": 7,
                "dataScale": 2,
                "nullable": "YES"
            }
        },
        "pordesp6": {
            "type": "Number",
            "required": false,
            "length": null,
            "precision": 7,
            "scale": 2,
            "mssql": {
                "columnName": "pordesp6",
                "dataType": "numeric",
                "dataLength": null,
                "dataPrecision": 7,
                "dataScale": 2,
                "nullable": "YES"
            }
        },
        "codAgr": {
            "type": "Number",
            "required": false,
            "length": null,
            "precision": 2,
            "scale": 0,
            "mssql": {
                "columnName": "cod_agr",
                "dataType": "numeric",
                "dataLength": null,
                "dataPrecision": 2,
                "dataScale": 0,
                "nullable": "YES"
            }
        },
        "vlrLista": {
            "type": "Number",
            "required": false,
            "length": null,
            "precision": 10,
            "scale": 2,
            "mssql": {
                "columnName": "vlr_lista",
                "dataType": "numeric",
                "dataLength": null,
                "dataPrecision": 10,
                "dataScale": 2,
                "nullable": "YES"
            }
        },
        "vlrUlpre": {
            "type": "Number",
            "required": false,
            "length": null,
            "precision": 10,
            "scale": 2,
            "mssql": {
                "columnName": "vlr_ulpre",
                "dataType": "numeric",
                "dataLength": null,
                "dataPrecision": 10,
                "dataScale": 2,
                "nullable": "YES"
            }
        },
        "vlrProm": {
            "type": "Number",
            "required": false,
            "length": null,
            "precision": 10,
            "scale": 2,
            "mssql": {
                "columnName": "vlr_prom",
                "dataType": "numeric",
                "dataLength": null,
                "dataPrecision": 10,
                "dataScale": 2,
                "nullable": "YES"
            }
        },
        "vlrCotiz": {
            "type": "Number",
            "required": false,
            "length": null,
            "precision": 10,
            "scale": 0,
            "mssql": {
                "columnName": "vlr_cotiz",
                "dataType": "numeric",
                "dataLength": null,
                "dataPrecision": 10,
                "dataScale": 0,
                "nullable": "YES"
            }
        },
        "sLista": {
            "type": "Boolean",
            "required": false,
            "length": null,
            "precision": null,
            "scale": null,
            "mssql": {
                "columnName": "s_lista",
                "dataType": "bit",
                "dataLength": null,
                "dataPrecision": null,
                "dataScale": null,
                "nullable": "YES"
            }
        },
        "sUlpre": {
            "type": "Boolean",
            "required": false,
            "length": null,
            "precision": null,
            "scale": null,
            "mssql": {
                "columnName": "s_ulpre",
                "dataType": "bit",
                "dataLength": null,
                "dataPrecision": null,
                "dataScale": null,
                "nullable": "YES"
            }
        },
        "sProm": {
            "type": "Boolean",
            "required": false,
            "length": null,
            "precision": null,
            "scale": null,
            "mssql": {
                "columnName": "s_prom",
                "dataType": "bit",
                "dataLength": null,
                "dataPrecision": null,
                "dataScale": null,
                "nullable": "YES"
            }
        },
        "sCotiz": {
            "type": "Boolean",
            "required": false,
            "length": null,
            "precision": null,
            "scale": null,
            "mssql": {
                "columnName": "s_cotiz",
                "dataType": "bit",
                "dataLength": null,
                "dataPrecision": null,
                "dataScale": null,
                "nullable": "YES"
            }
        },
        "fecUlpre": {
            "type": "Date",
            "required": false,
            "length": null,
            "precision": null,
            "scale": null,
            "mssql": {
                "columnName": "fec_ulpre",
                "dataType": "datetime",
                "dataLength": null,
                "dataPrecision": null,
                "dataScale": null,
                "nullable": "YES"
            }
        },
        "fecLista": {
            "type": "Date",
            "required": false,
            "length": null,
            "precision": null,
            "scale": null,
            "mssql": {
                "columnName": "fec_lista",
                "dataType": "datetime",
                "dataLength": null,
                "dataPrecision": null,
                "dataScale": null,
                "nullable": "YES"
            }
        },
        "vlrGcf": {
            "type": "Number",
            "required": false,
            "length": null,
            "precision": 12,
            "scale": 2,
            "mssql": {
                "columnName": "vlr_gcf",
                "dataType": "numeric",
                "dataLength": null,
                "dataPrecision": 12,
                "dataScale": 2,
                "nullable": "YES"
            }
        },
        "fecGcf": {
            "type": "Date",
            "required": false,
            "length": null,
            "precision": null,
            "scale": null,
            "mssql": {
                "columnName": "fec_gcf",
                "dataType": "datetime",
                "dataLength": null,
                "dataPrecision": null,
                "dataScale": null,
                "nullable": "YES"
            }
        },
        "sGcf": {
            "type": "Boolean",
            "required": false,
            "length": null,
            "precision": null,
            "scale": null,
            "mssql": {
                "columnName": "s_gcf",
                "dataType": "bit",
                "dataLength": null,
                "dataPrecision": null,
                "dataScale": null,
                "nullable": "YES"
            }
        },
        "vlrGcfext": {
            "type": "Number",
            "required": false,
            "length": null,
            "precision": 12,
            "scale": 2,
            "mssql": {
                "columnName": "vlr_gcfExt",
                "dataType": "numeric",
                "dataLength": null,
                "dataPrecision": 12,
                "dataScale": 2,
                "nullable": "YES"
            }
        },
        "fecGcfext": {
            "type": "Date",
            "required": false,
            "length": null,
            "precision": null,
            "scale": null,
            "mssql": {
                "columnName": "fec_gcfExt",
                "dataType": "datetime",
                "dataLength": null,
                "dataPrecision": null,
                "dataScale": null,
                "nullable": "YES"
            }
        },
        "sGcfext": {
            "type": "Boolean",
            "required": false,
            "length": null,
            "precision": null,
            "scale": null,
            "mssql": {
                "columnName": "s_gcfExt",
                "dataType": "bit",
                "dataLength": null,
                "dataPrecision": null,
                "dataScale": null,
                "nullable": "YES"
            }
        },
        "fchaAct": {
            "type": "Date",
            "required": false,
            "length": null,
            "precision": null,
            "scale": null,
            "mssql": {
                "columnName": "fcha_act",
                "dataType": "datetime",
                "dataLength": null,
                "dataPrecision": null,
                "dataScale": null,
                "nullable": "YES"
            }
        },
        "idenUsr": {
            "type": "String",
            "required": false,
            "length": 30,
            "precision": null,
            "scale": null,
            "mssql": {
                "columnName": "iden_usr",
                "dataType": "varchar",
                "dataLength": 30,
                "dataPrecision": null,
                "dataScale": null,
                "nullable": "YES"
            }
        }
    }
}