{
    "name": "FacomprDet",
    "options": {
        "idInjection": false,
        "mssql": {
            "schema": "dbo",
            "table": "facompr_det"
        }
    },
    "properties": {
        "prefijo": {
            "type": "String",
            "required": true,
            "length": 2,
            "precision": null,
            "scale": null,
            "mssql": {
                "columnName": "prefijo",
                "dataType": "char",
                "dataLength": 2,
                "dataPrecision": null,
                "dataScale": null,
                "nullable": "NO"
            }
        },
        "nuorden": {
            "type": "Number",
            "required": true,
            "length": null,
            "id": true,
            "precision": 11,
            "scale": 0,
            "mssql": {
                "columnName": "nuorden",
                "dataType": "numeric",
                "dataLength": null,
                "dataPrecision": 11,
                "dataScale": 0,
                "nullable": "NO"
            }
        },
        "codProd": {
            "type": "String",
            "required": false,
            "length": 4,
            "precision": null,
            "scale": null,
            "mssql": {
                "columnName": "cod_prod",
                "dataType": "char",
                "dataLength": 4,
                "dataPrecision": null,
                "dataScale": null,
                "nullable": "YES"
            }
        },
        "consecut": {
            "type": "Number",
            "required": false,
            "length": null,
            "precision": 3,
            "scale": 0,
            "mssql": {
                "columnName": "consecut",
                "dataType": "tinyint",
                "dataLength": null,
                "dataPrecision": 3,
                "dataScale": 0,
                "nullable": "YES"
            }
        },
        "consecutVar": {
            "type": "Number",
            "required": false,
            "length": null,
            "precision": 3,
            "scale": 0,
            "mssql": {
                "columnName": "consecut_var",
                "dataType": "tinyint",
                "dataLength": null,
                "dataPrecision": 3,
                "dataScale": 0,
                "nullable": "YES"
            }
        },
        "detprod": {
            "type": "String",
            "required": false,
            "length": 1800,
            "precision": null,
            "scale": null,
            "mssql": {
                "columnName": "detprod",
                "dataType": "varchar",
                "dataLength": 1800,
                "dataPrecision": null,
                "dataScale": null,
                "nullable": "YES"
            }
        },
        "cantidad": {
            "type": "Number",
            "required": false,
            "length": null,
            "precision": 10,
            "scale": 0,
            "mssql": {
                "columnName": "cantidad",
                "dataType": "numeric",
                "dataLength": null,
                "dataPrecision": 10,
                "dataScale": 0,
                "nullable": "YES"
            }
        },
        "cantidadProp": {
            "type": "Number",
            "required": false,
            "length": null,
            "precision": 18,
            "scale": 0,
            "mssql": {
                "columnName": "cantidad_prop",
                "dataType": "numeric",
                "dataLength": null,
                "dataPrecision": 18,
                "dataScale": 0,
                "nullable": "YES"
            }
        },
        "vauniven": {
            "type": "Number",
            "required": false,
            "length": null,
            "precision": 15,
            "scale": 5,
            "mssql": {
                "columnName": "vauniven",
                "dataType": "decimal",
                "dataLength": null,
                "dataPrecision": 15,
                "dataScale": 5,
                "nullable": "YES"
            }
        },
        "candesNf": {
            "type": "Number",
            "required": false,
            "length": null,
            "precision": 10,
            "scale": 0,
            "mssql": {
                "columnName": "candes_nf",
                "dataType": "numeric",
                "dataLength": null,
                "dataPrecision": 10,
                "dataScale": 0,
                "nullable": "YES"
            }
        },
        "candes": {
            "type": "Number",
            "required": false,
            "length": null,
            "precision": 10,
            "scale": 0,
            "mssql": {
                "columnName": "candes",
                "dataType": "numeric",
                "dataLength": null,
                "dataPrecision": 10,
                "dataScale": 0,
                "nullable": "YES"
            }
        },
        "canfac": {
            "type": "Number",
            "required": false,
            "length": null,
            "precision": 10,
            "scale": 0,
            "mssql": {
                "columnName": "canfac",
                "dataType": "numeric",
                "dataLength": null,
                "dataPrecision": 10,
                "dataScale": 0,
                "nullable": "YES"
            }
        },
        "canfal": {
            "type": "Number",
            "required": false,
            "length": null,
            "precision": 9,
            "scale": 0,
            "mssql": {
                "columnName": "canfal",
                "dataType": "numeric",
                "dataLength": null,
                "dataPrecision": 9,
                "dataScale": 0,
                "nullable": "YES"
            }
        },
        "vatopro": {
            "type": "Number",
            "required": false,
            "length": null,
            "precision": 15,
            "scale": 2,
            "mssql": {
                "columnName": "vatopro",
                "dataType": "numeric",
                "dataLength": null,
                "dataPrecision": 15,
                "dataScale": 2,
                "nullable": "YES"
            }
        },
        "pordescu": {
            "type": "Number",
            "required": false,
            "length": null,
            "precision": 4,
            "scale": 2,
            "mssql": {
                "columnName": "pordescu",
                "dataType": "numeric",
                "dataLength": null,
                "dataPrecision": 4,
                "dataScale": 2,
                "nullable": "YES"
            }
        },
        "vrdescu": {
            "type": "Number",
            "required": false,
            "length": null,
            "precision": 8,
            "scale": 2,
            "mssql": {
                "columnName": "vrdescu",
                "dataType": "numeric",
                "dataLength": null,
                "dataPrecision": 8,
                "dataScale": 2,
                "nullable": "YES"
            }
        },
        "motivo": {
            "type": "String",
            "required": false,
            "length": 500,
            "precision": null,
            "scale": null,
            "mssql": {
                "columnName": "motivo",
                "dataType": "char",
                "dataLength": 500,
                "dataPrecision": null,
                "dataScale": null,
                "nullable": "YES"
            }
        },
        "codigo": {
            "type": "String",
            "required": false,
            "length": 50,
            "precision": null,
            "scale": null,
            "mssql": {
                "columnName": "codigo",
                "dataType": "varchar",
                "dataLength": 50,
                "dataPrecision": null,
                "dataScale": null,
                "nullable": "YES"
            }
        },
        "aprob": {
            "type": "String",
            "required": false,
            "length": 10,
            "precision": null,
            "scale": null,
            "mssql": {
                "columnName": "aprob",
                "dataType": "char",
                "dataLength": 10,
                "dataPrecision": null,
                "dataScale": null,
                "nullable": "YES"
            }
        },
        "nsolic": {
            "type": "Number",
            "required": false,
            "length": null,
            "precision": 8,
            "scale": 0,
            "mssql": {
                "columnName": "nsolic",
                "dataType": "numeric",
                "dataLength": null,
                "dataPrecision": 8,
                "dataScale": 0,
                "nullable": "YES"
            }
        },
        "consec": {
            "type": "String",
            "required": false,
            "length": 2,
            "precision": null,
            "scale": null,
            "mssql": {
                "columnName": "consec",
                "dataType": "char",
                "dataLength": 2,
                "dataPrecision": null,
                "dataScale": null,
                "nullable": "YES"
            }
        },
        "produccion": {
            "type": "Boolean",
            "required": false,
            "length": null,
            "precision": null,
            "scale": null,
            "mssql": {
                "columnName": "produccion",
                "dataType": "bit",
                "dataLength": null,
                "dataPrecision": null,
                "dataScale": null,
                "nullable": "YES"
            }
        },
        "prefijoOprod": {
            "type": "String",
            "required": false,
            "length": 2,
            "precision": null,
            "scale": null,
            "mssql": {
                "columnName": "prefijo_oprod",
                "dataType": "char",
                "dataLength": 2,
                "dataPrecision": null,
                "dataScale": null,
                "nullable": "YES"
            }
        },
        "ordproduc": {
            "type": "String",
            "required": false,
            "length": 10,
            "precision": null,
            "scale": null,
            "mssql": {
                "columnName": "ordproduc",
                "dataType": "char",
                "dataLength": 10,
                "dataPrecision": null,
                "dataScale": null,
                "nullable": "YES"
            }
        },
        "ultRem": {
            "type": "Boolean",
            "required": false,
            "length": null,
            "precision": null,
            "scale": null,
            "mssql": {
                "columnName": "ult_rem",
                "dataType": "bit",
                "dataLength": null,
                "dataPrecision": null,
                "dataScale": null,
                "nullable": "YES"
            }
        },
        "fchaUltrem": {
            "type": "Date",
            "required": false,
            "length": null,
            "precision": null,
            "scale": null,
            "mssql": {
                "columnName": "fcha_ultrem",
                "dataType": "datetime",
                "dataLength": null,
                "dataPrecision": null,
                "dataScale": null,
                "nullable": "YES"
            }
        },
        "fchaAct": {
            "type": "Date",
            "required": false,
            "length": null,
            "precision": null,
            "scale": null,
            "mssql": {
                "columnName": "fcha_act",
                "dataType": "datetime",
                "dataLength": null,
                "dataPrecision": null,
                "dataScale": null,
                "nullable": "YES"
            }
        },
        "idenUsr": {
            "type": "String",
            "required": false,
            "length": 30,
            "precision": null,
            "scale": null,
            "mssql": {
                "columnName": "iden_usr",
                "dataType": "varchar",
                "dataLength": 30,
                "dataPrecision": null,
                "dataScale": null,
                "nullable": "YES"
            }
        }
    }
}