{
    "name": "Facompr",
    "options": {
        "idInjection": false,
        "mssql": {
            "schema": "dbo",
            "table": "facompr"
        }
    },
    "properties": {
        "prefijo": {
            "type": "String",
            "required": true,
            "length": 2,
            "id": true,
            "precision": null,
            "scale": null,
            "mssql": {
                "columnName": "prefijo",
                "dataType": "char",
                "dataLength": 2,
                "dataPrecision": null,
                "dataScale": null,
                "nullable": "NO"
            }
        },
        "nuorden": {
            "type": "Number",
            "required": true,
            "length": null,
            "precision": 11,
            "scale": 0,
            "mssql": {
                "columnName": "nuorden",
                "dataType": "numeric",
                "dataLength": null,
                "dataPrecision": 11,
                "dataScale": 0,
                "nullable": "NO"
            }
        },
        "codClie": {
            "type": "String",
            "required": true,
            "length": 11,
            "precision": null,
            "scale": null,
            "mssql": {
                "columnName": "cod_clie",
                "dataType": "char",
                "dataLength": 11,
                "dataPrecision": null,
                "dataScale": null,
                "nullable": "NO"
            }
        },
        "sucClie": {
            "type": "String",
            "required": true,
            "length": 2,
            "precision": null,
            "scale": null,
            "mssql": {
                "columnName": "suc_clie",
                "dataType": "char",
                "dataLength": 2,
                "dataPrecision": null,
                "dataScale": null,
                "nullable": "NO"
            }
        },
        "nombreConta": {
            "type": "String",
            "required": false,
            "length": 50,
            "precision": null,
            "scale": null,
            "mssql": {
                "columnName": "nombre_conta",
                "dataType": "varchar",
                "dataLength": 50,
                "dataPrecision": null,
                "dataScale": null,
                "nullable": "YES"
            }
        },
        "fechven": {
            "type": "Date",
            "required": false,
            "length": null,
            "precision": null,
            "scale": null,
            "mssql": {
                "columnName": "fechven",
                "dataType": "smalldatetime",
                "dataLength": null,
                "dataPrecision": null,
                "dataScale": null,
                "nullable": "YES"
            }
        },
        "fechent": {
            "type": "Date",
            "required": false,
            "length": null,
            "precision": null,
            "scale": null,
            "mssql": {
                "columnName": "fechent",
                "dataType": "smalldatetime",
                "dataLength": null,
                "dataPrecision": null,
                "dataScale": null,
                "nullable": "YES"
            }
        },
        "nupedido": {
            "type": "String",
            "required": false,
            "length": 12,
            "precision": null,
            "scale": null,
            "mssql": {
                "columnName": "nupedido",
                "dataType": "char",
                "dataLength": 12,
                "dataPrecision": null,
                "dataScale": null,
                "nullable": "YES"
            }
        },
        "fechOc": {
            "type": "Date",
            "required": false,
            "length": null,
            "precision": null,
            "scale": null,
            "mssql": {
                "columnName": "fech_oc",
                "dataType": "smalldatetime",
                "dataLength": null,
                "dataPrecision": null,
                "dataScale": null,
                "nullable": "YES"
            }
        },
        "cantot": {
            "type": "Number",
            "required": false,
            "length": null,
            "precision": 18,
            "scale": 0,
            "mssql": {
                "columnName": "cantot",
                "dataType": "numeric",
                "dataLength": null,
                "dataPrecision": 18,
                "dataScale": 0,
                "nullable": "YES"
            }
        },
        "vatotafa": {
            "type": "Number",
            "required": false,
            "length": null,
            "precision": 14,
            "scale": 2,
            "mssql": {
                "columnName": "vatotafa",
                "dataType": "numeric",
                "dataLength": null,
                "dataPrecision": 14,
                "dataScale": 2,
                "nullable": "YES"
            }
        },
        "observa": {
            "type": "String",
            "required": false,
            "length": 200,
            "precision": null,
            "scale": null,
            "mssql": {
                "columnName": "observa",
                "dataType": "varchar",
                "dataLength": 200,
                "dataPrecision": null,
                "dataScale": null,
                "nullable": "YES"
            }
        },
        "moneda": {
            "type": "String",
            "required": false,
            "length": 5,
            "precision": null,
            "scale": null,
            "mssql": {
                "columnName": "moneda",
                "dataType": "char",
                "dataLength": 5,
                "dataPrecision": null,
                "dataScale": null,
                "nullable": "YES"
            }
        },
        "prefcotiza": {
            "type": "String",
            "required": false,
            "length": 2,
            "precision": null,
            "scale": null,
            "mssql": {
                "columnName": "prefcotiza",
                "dataType": "char",
                "dataLength": 2,
                "dataPrecision": null,
                "dataScale": null,
                "nullable": "YES"
            }
        },
        "cotizacion": {
            "type": "Number",
            "required": false,
            "length": null,
            "precision": 8,
            "scale": 0,
            "mssql": {
                "columnName": "cotizacion",
                "dataType": "numeric",
                "dataLength": null,
                "dataPrecision": 8,
                "dataScale": 0,
                "nullable": "YES"
            }
        },
        "consecCoti": {
            "type": "String",
            "required": false,
            "length": 2,
            "precision": null,
            "scale": null,
            "mssql": {
                "columnName": "consec_coti",
                "dataType": "char",
                "dataLength": 2,
                "dataPrecision": null,
                "dataScale": null,
                "nullable": "YES"
            }
        },
        "condPago": {
            "type": "Number",
            "required": false,
            "length": null,
            "precision": 5,
            "scale": 0,
            "mssql": {
                "columnName": "cond_pago",
                "dataType": "smallint",
                "dataLength": null,
                "dataPrecision": 5,
                "dataScale": 0,
                "nullable": "YES"
            }
        },
        "condOrden": {
            "type": "Number",
            "required": false,
            "length": null,
            "precision": 5,
            "scale": 0,
            "mssql": {
                "columnName": "cond_orden",
                "dataType": "smallint",
                "dataLength": null,
                "dataPrecision": 5,
                "dataScale": 0,
                "nullable": "YES"
            }
        },
        "tolerancia": {
            "type": "Number",
            "required": false,
            "length": null,
            "precision": 5,
            "scale": 2,
            "mssql": {
                "columnName": "tolerancia",
                "dataType": "numeric",
                "dataLength": null,
                "dataPrecision": 5,
                "dataScale": 2,
                "nullable": "YES"
            }
        },
        "detOrden": {
            "type": "String",
            "required": false,
            "length": 1800,
            "precision": null,
            "scale": null,
            "mssql": {
                "columnName": "det_orden",
                "dataType": "varchar",
                "dataLength": 1800,
                "dataPrecision": null,
                "dataScale": null,
                "nullable": "YES"
            }
        },
        "codVend": {
            "type": "String",
            "required": false,
            "length": 4,
            "precision": null,
            "scale": null,
            "mssql": {
                "columnName": "cod_vend",
                "dataType": "char",
                "dataLength": 4,
                "dataPrecision": null,
                "dataScale": null,
                "nullable": "YES"
            }
        },
        "porComi": {
            "type": "Number",
            "required": false,
            "length": null,
            "precision": 5,
            "scale": 2,
            "mssql": {
                "columnName": "por_comi",
                "dataType": "numeric",
                "dataLength": null,
                "dataPrecision": 5,
                "dataScale": 2,
                "nullable": "YES"
            }
        },
        "suminis": {
            "type": "String",
            "required": false,
            "length": 50,
            "precision": null,
            "scale": null,
            "mssql": {
                "columnName": "suminis",
                "dataType": "nvarchar",
                "dataLength": 50,
                "dataPrecision": null,
                "dataScale": null,
                "nullable": "YES"
            }
        },
        "desTrabj": {
            "type": "String",
            "required": false,
            "length": 1800,
            "precision": null,
            "scale": null,
            "mssql": {
                "columnName": "des_trabj",
                "dataType": "nvarchar",
                "dataLength": 1800,
                "dataPrecision": null,
                "dataScale": null,
                "nullable": "YES"
            }
        },
        "bodega": {
            "type": "String",
            "required": false,
            "length": 2,
            "precision": null,
            "scale": null,
            "mssql": {
                "columnName": "bodega",
                "dataType": "char",
                "dataLength": 2,
                "dataPrecision": null,
                "dataScale": null,
                "nullable": "YES"
            }
        },
        "tiement": {
            "type": "String",
            "required": false,
            "length": 50,
            "precision": null,
            "scale": null,
            "mssql": {
                "columnName": "tiement",
                "dataType": "varchar",
                "dataLength": 50,
                "dataPrecision": null,
                "dataScale": null,
                "nullable": "YES"
            }
        },
        "empaque": {
            "type": "String",
            "required": false,
            "length": 50,
            "precision": null,
            "scale": null,
            "mssql": {
                "columnName": "empaque",
                "dataType": "varchar",
                "dataLength": 50,
                "dataPrecision": null,
                "dataScale": null,
                "nullable": "YES"
            }
        },
        "otros": {
            "type": "String",
            "required": false,
            "length": 50,
            "precision": null,
            "scale": null,
            "mssql": {
                "columnName": "otros",
                "dataType": "varchar",
                "dataLength": 50,
                "dataPrecision": null,
                "dataScale": null,
                "nullable": "YES"
            }
        },
        "poliza": {
            "type": "String",
            "required": false,
            "length": 50,
            "precision": null,
            "scale": null,
            "mssql": {
                "columnName": "poliza",
                "dataType": "varchar",
                "dataLength": 50,
                "dataPrecision": null,
                "dataScale": null,
                "nullable": "YES"
            }
        },
        "custodia": {
            "type": "Boolean",
            "required": false,
            "length": null,
            "precision": null,
            "scale": null,
            "mssql": {
                "columnName": "custodia",
                "dataType": "bit",
                "dataLength": null,
                "dataPrecision": null,
                "dataScale": null,
                "nullable": "YES"
            }
        },
        "rempar": {
            "type": "Boolean",
            "required": false,
            "length": null,
            "precision": null,
            "scale": null,
            "mssql": {
                "columnName": "rempar",
                "dataType": "bit",
                "dataLength": null,
                "dataPrecision": null,
                "dataScale": null,
                "nullable": "YES"
            }
        },
        "remtol": {
            "type": "Boolean",
            "required": false,
            "length": null,
            "precision": null,
            "scale": null,
            "mssql": {
                "columnName": "remtol",
                "dataType": "bit",
                "dataLength": null,
                "dataPrecision": null,
                "dataScale": null,
                "nullable": "YES"
            }
        },
        "facpar": {
            "type": "Boolean",
            "required": false,
            "length": null,
            "precision": null,
            "scale": null,
            "mssql": {
                "columnName": "facpar",
                "dataType": "bit",
                "dataLength": null,
                "dataPrecision": null,
                "dataScale": null,
                "nullable": "YES"
            }
        },
        "factol": {
            "type": "Boolean",
            "required": false,
            "length": null,
            "precision": null,
            "scale": null,
            "mssql": {
                "columnName": "factol",
                "dataType": "bit",
                "dataLength": null,
                "dataPrecision": null,
                "dataScale": null,
                "nullable": "YES"
            }
        },
        "siCushg": {
            "type": "Boolean",
            "required": false,
            "length": null,
            "precision": null,
            "scale": null,
            "mssql": {
                "columnName": "si_cushg",
                "dataType": "bit",
                "dataLength": null,
                "dataPrecision": null,
                "dataScale": null,
                "nullable": "YES"
            }
        },
        "facturable": {
            "type": "Boolean",
            "required": false,
            "length": null,
            "precision": null,
            "scale": null,
            "mssql": {
                "columnName": "facturable",
                "dataType": "bit",
                "dataLength": null,
                "dataPrecision": null,
                "dataScale": null,
                "nullable": "YES"
            }
        },
        "garantia": {
            "type": "Boolean",
            "required": false,
            "length": null,
            "precision": null,
            "scale": null,
            "mssql": {
                "columnName": "garantia",
                "dataType": "bit",
                "dataLength": null,
                "dataPrecision": null,
                "dataScale": null,
                "nullable": "YES"
            }
        },
        "etiqroll": {
            "type": "String",
            "required": false,
            "length": 50,
            "precision": null,
            "scale": null,
            "mssql": {
                "columnName": "etiqroll",
                "dataType": "varchar",
                "dataLength": 50,
                "dataPrecision": null,
                "dataScale": null,
                "nullable": "YES"
            }
        },
        "core": {
            "type": "String",
            "required": false,
            "length": 10,
            "precision": null,
            "scale": null,
            "mssql": {
                "columnName": "core",
                "dataType": "char",
                "dataLength": 10,
                "dataPrecision": null,
                "dataScale": null,
                "nullable": "YES"
            }
        },
        "observaRem": {
            "type": "String",
            "required": false,
            "length": 200,
            "precision": null,
            "scale": null,
            "mssql": {
                "columnName": "observa_rem",
                "dataType": "varchar",
                "dataLength": 200,
                "dataPrecision": null,
                "dataScale": null,
                "nullable": "YES"
            }
        },
        "ultRem": {
            "type": "Boolean",
            "required": false,
            "length": null,
            "precision": null,
            "scale": null,
            "mssql": {
                "columnName": "ult_rem",
                "dataType": "bit",
                "dataLength": null,
                "dataPrecision": null,
                "dataScale": null,
                "nullable": "YES"
            }
        },
        "fchaUltrem": {
            "type": "Date",
            "required": false,
            "length": null,
            "precision": null,
            "scale": null,
            "mssql": {
                "columnName": "fcha_ultrem",
                "dataType": "datetime",
                "dataLength": null,
                "dataPrecision": null,
                "dataScale": null,
                "nullable": "YES"
            }
        },
        "estado": {
            "type": "String",
            "required": false,
            "length": 11,
            "precision": null,
            "scale": null,
            "mssql": {
                "columnName": "estado",
                "dataType": "char",
                "dataLength": 11,
                "dataPrecision": null,
                "dataScale": null,
                "nullable": "YES"
            }
        },
        "fchaEstado": {
            "type": "Date",
            "required": false,
            "length": null,
            "precision": null,
            "scale": null,
            "mssql": {
                "columnName": "fcha_estado",
                "dataType": "datetime",
                "dataLength": null,
                "dataPrecision": null,
                "dataScale": null,
                "nullable": "YES"
            }
        },
        "fchaAct": {
            "type": "Date",
            "required": false,
            "length": null,
            "precision": null,
            "scale": null,
            "mssql": {
                "columnName": "fcha_act",
                "dataType": "datetime",
                "dataLength": null,
                "dataPrecision": null,
                "dataScale": null,
                "nullable": "YES"
            }
        },
        "idenUsr": {
            "type": "String",
            "required": false,
            "length": 30,
            "precision": null,
            "scale": null,
            "mssql": {
                "columnName": "iden_usr",
                "dataType": "varchar",
                "dataLength": 30,
                "dataPrecision": null,
                "dataScale": null,
                "nullable": "YES"
            }
        }
    }
}