{
  "name": "GrupPr",
  "options": {
    "idInjection": false,
    "mssql": {
      "schema": "dbo",
      "table": "grup_pr"
    }
  },
  "properties": {
    "codGrup": {
      "type": "String",
      "required": true,
      "length": 2,
      "precision": null,
      "scale": null,
      "id": true,
      "mssql": {
        "columnName": "cod_grup",
        "dataType": "char",
        "dataLength": 2,
        "dataPrecision": null,
        "dataScale": null,
        "nullable": "NO"
      }
    },
    "descripGrup": {
      "type": "String",
      "required": true,
      "length": 30,
      "precision": null,
      "scale": null,
      "mssql": {
        "columnName": "descrip_grup",
        "dataType": "varchar",
        "dataLength": 30,
        "dataPrecision": null,
        "dataScale": null,
        "nullable": "NO"
      }
    },
    "pordes": {
      "type": "Number",
      "required": true,
      "length": null,
      "precision": 3,
      "scale": 2,
      "mssql": {
        "columnName": "pordes",
        "dataType": "numeric",
        "dataLength": null,
        "dataPrecision": 3,
        "dataScale": 2,
        "nullable": "NO"
      }
    },
    "ctacon": {
      "type": "String",
      "required": true,
      "length": 9,
      "precision": null,
      "scale": null,
      "mssql": {
        "columnName": "ctacon",
        "dataType": "char",
        "dataLength": 9,
        "dataPrecision": null,
        "dataScale": null,
        "nullable": "NO"
      }
    },
    "fchaAct": {
      "type": "Date",
      "required": false,
      "length": null,
      "precision": null,
      "scale": null,
      "mssql": {
        "columnName": "fcha_act",
        "dataType": "datetime",
        "dataLength": null,
        "dataPrecision": null,
        "dataScale": null,
        "nullable": "YES"
      }
    },
    "idenUsr": {
      "type": "String",
      "required": false,
      "length": 30,
      "precision": null,
      "scale": null,
      "mssql": {
        "columnName": "iden_usr",
        "dataType": "varchar",
        "dataLength": 30,
        "dataPrecision": null,
        "dataScale": null,
        "nullable": "YES"
      }
    }
  }
}