{
    "name": "Montajes",
    "options": {
        "idInjection": true,
        "mssql": {
            "schema": "dbo",
            "table": "montajes"
        }
    },
    "properties": {
        "idMontaje": {
            "type": "Number",
            "required": false,
            "length": null,
            "precision": 4,
            "id": true,
            "generated": true,
            "scale": 0,
            "mssql": {
                "columnName": "id_montaje",
                "dataType": "numeric",
                "dataLength": null,
                "dataPrecision": 4,
                "dataScale": 0,
                "nullable": "NO"
            }
        },
        "nomMontaje": {
            "type": "String",
            "required": true,
            "length": 100,
            "precision": null,
            "scale": null,
            "mssql": {
                "columnName": "nom_montaje",
                "dataType": "varchar",
                "dataLength": 100,
                "dataPrecision": null,
                "dataScale": null,
                "nullable": "NO"
            }
        },
        "tmprAnchob": {
            "type": "Number",
            "required": false,
            "length": null,
            "precision": 7,
            "scale": 2,
            "mssql": {
                "columnName": "tmpr_anchoB",
                "dataType": "numeric",
                "dataLength": null,
                "dataPrecision": 7,
                "dataScale": 2,
                "nullable": "YES"
            }
        },
        "tmprAltob": {
            "type": "Number",
            "required": false,
            "length": null,
            "precision": 7,
            "scale": 2,
            "mssql": {
                "columnName": "tmpr_altoB",
                "dataType": "numeric",
                "dataLength": null,
                "dataPrecision": 7,
                "dataScale": 2,
                "nullable": "YES"
            }
        },
        "tamcAnchob": {
            "type": "Number",
            "required": false,
            "length": null,
            "precision": 7,
            "scale": 2,
            "mssql": {
                "columnName": "tamc_anchoB",
                "dataType": "numeric",
                "dataLength": null,
                "dataPrecision": 7,
                "dataScale": 2,
                "nullable": "YES"
            }
        },
        "tamcAltob": {
            "type": "Number",
            "required": false,
            "length": null,
            "precision": 7,
            "scale": 2,
            "mssql": {
                "columnName": "tamc_altoB",
                "dataType": "numeric",
                "dataLength": null,
                "dataPrecision": 7,
                "dataScale": 2,
                "nullable": "YES"
            }
        },
        "tamAnchob": {
            "type": "Number",
            "required": false,
            "length": null,
            "precision": 7,
            "scale": 2,
            "mssql": {
                "columnName": "tam_anchoB",
                "dataType": "numeric",
                "dataLength": null,
                "dataPrecision": 7,
                "dataScale": 2,
                "nullable": "YES"
            }
        },
        "tamAltob": {
            "type": "Number",
            "required": false,
            "length": null,
            "precision": 7,
            "scale": 2,
            "mssql": {
                "columnName": "tam_altoB",
                "dataType": "numeric",
                "dataLength": null,
                "dataPrecision": 7,
                "dataScale": 2,
                "nullable": "YES"
            }
        },
        "tmplAnchob": {
            "type": "Number",
            "required": false,
            "length": null,
            "precision": 7,
            "scale": 0,
            "mssql": {
                "columnName": "tmpl_anchoB",
                "dataType": "numeric",
                "dataLength": null,
                "dataPrecision": 7,
                "dataScale": 0,
                "nullable": "YES"
            }
        },
        "tmplAltob": {
            "type": "Number",
            "required": false,
            "length": null,
            "precision": 7,
            "scale": 0,
            "mssql": {
                "columnName": "tmpl_altoB",
                "dataType": "numeric",
                "dataLength": null,
                "dataPrecision": 7,
                "dataScale": 0,
                "nullable": "YES"
            }
        },
        "margTopb": {
            "type": "Number",
            "required": false,
            "length": null,
            "precision": 7,
            "scale": 0,
            "mssql": {
                "columnName": "marg_topB",
                "dataType": "numeric",
                "dataLength": null,
                "dataPrecision": 7,
                "dataScale": 0,
                "nullable": "YES"
            }
        },
        "margBottb": {
            "type": "Number",
            "required": false,
            "length": null,
            "precision": 7,
            "scale": 0,
            "mssql": {
                "columnName": "marg_bottB",
                "dataType": "numeric",
                "dataLength": null,
                "dataPrecision": 7,
                "dataScale": 0,
                "nullable": "YES"
            }
        },
        "margLeftb": {
            "type": "Number",
            "required": false,
            "length": null,
            "precision": 7,
            "scale": 0,
            "mssql": {
                "columnName": "marg_leftB",
                "dataType": "numeric",
                "dataLength": null,
                "dataPrecision": 7,
                "dataScale": 0,
                "nullable": "YES"
            }
        },
        "margRighb": {
            "type": "Number",
            "required": false,
            "length": null,
            "precision": 7,
            "scale": 0,
            "mssql": {
                "columnName": "marg_righB",
                "dataType": "numeric",
                "dataLength": null,
                "dataPrecision": 7,
                "dataScale": 0,
                "nullable": "YES"
            }
        },
        "sepHorib": {
            "type": "Number",
            "required": false,
            "length": null,
            "precision": 7,
            "scale": 0,
            "mssql": {
                "columnName": "sep_horiB",
                "dataType": "numeric",
                "dataLength": null,
                "dataPrecision": 7,
                "dataScale": 0,
                "nullable": "YES"
            }
        },
        "sepVertb": {
            "type": "Number",
            "required": false,
            "length": null,
            "precision": 7,
            "scale": 0,
            "mssql": {
                "columnName": "sep_vertB",
                "dataType": "numeric",
                "dataLength": null,
                "dataPrecision": 7,
                "dataScale": 0,
                "nullable": "YES"
            }
        },
        "espHorib": {
            "type": "Number",
            "required": false,
            "length": null,
            "precision": 7,
            "scale": 0,
            "mssql": {
                "columnName": "esp_horiB",
                "dataType": "numeric",
                "dataLength": null,
                "dataPrecision": 7,
                "dataScale": 0,
                "nullable": "YES"
            }
        },
        "espVertb": {
            "type": "Number",
            "required": false,
            "length": null,
            "precision": 7,
            "scale": 0,
            "mssql": {
                "columnName": "esp_vertB",
                "dataType": "numeric",
                "dataLength": null,
                "dataPrecision": 7,
                "dataScale": 0,
                "nullable": "YES"
            }
        },
        "longAnchob": {
            "type": "Number",
            "required": false,
            "length": null,
            "precision": 7,
            "scale": 0,
            "mssql": {
                "columnName": "long_anchoB",
                "dataType": "numeric",
                "dataLength": null,
                "dataPrecision": 7,
                "dataScale": 0,
                "nullable": "YES"
            }
        },
        "longAltob": {
            "type": "Number",
            "required": false,
            "length": null,
            "precision": 7,
            "scale": 0,
            "mssql": {
                "columnName": "long_altoB",
                "dataType": "numeric",
                "dataLength": null,
                "dataPrecision": 7,
                "dataScale": 0,
                "nullable": "YES"
            }
        },
        "cabAnchob": {
            "type": "Number",
            "required": false,
            "length": null,
            "precision": 7,
            "scale": 0,
            "mssql": {
                "columnName": "cab_anchoB",
                "dataType": "numeric",
                "dataLength": null,
                "dataPrecision": 7,
                "dataScale": 0,
                "nullable": "YES"
            }
        },
        "cabAltob": {
            "type": "Number",
            "required": false,
            "length": null,
            "precision": 7,
            "scale": 0,
            "mssql": {
                "columnName": "cab_altoB",
                "dataType": "numeric",
                "dataLength": null,
                "dataPrecision": 7,
                "dataScale": 0,
                "nullable": "YES"
            }
        },
        "cabTotalb": {
            "type": "Number",
            "required": false,
            "length": null,
            "precision": 7,
            "scale": 0,
            "mssql": {
                "columnName": "cab_totalB",
                "dataType": "numeric",
                "dataLength": null,
                "dataPrecision": 7,
                "dataScale": 0,
                "nullable": "YES"
            }
        },
        "opcionb": {
            "type": "Number",
            "required": false,
            "length": null,
            "precision": 7,
            "scale": 0,
            "mssql": {
                "columnName": "opcionB",
                "dataType": "numeric",
                "dataLength": null,
                "dataPrecision": 7,
                "dataScale": 0,
                "nullable": "YES"
            }
        },
        "tirPlihb": {
            "type": "Number",
            "required": false,
            "length": null,
            "precision": 7,
            "scale": 0,
            "mssql": {
                "columnName": "tir_plihB",
                "dataType": "numeric",
                "dataLength": null,
                "dataPrecision": 7,
                "dataScale": 0,
                "nullable": "YES"
            }
        },
        "tirPlivb": {
            "type": "Number",
            "required": false,
            "length": null,
            "precision": 7,
            "scale": 0,
            "mssql": {
                "columnName": "tir_plivB",
                "dataType": "numeric",
                "dataLength": null,
                "dataPrecision": 7,
                "dataScale": 0,
                "nullable": "YES"
            }
        },
        "centrarb": {
            "type": "Boolean",
            "required": false,
            "length": null,
            "precision": null,
            "scale": null,
            "mssql": {
                "columnName": "centrarB",
                "dataType": "bit",
                "dataLength": null,
                "dataPrecision": null,
                "dataScale": null,
                "nullable": "YES"
            }
        },
        "arcrepb": {
            "type": "String",
            "required": false,
            "length": 8,
            "precision": null,
            "scale": null,
            "mssql": {
                "columnName": "arcrepB",
                "dataType": "char",
                "dataLength": 8,
                "dataPrecision": null,
                "dataScale": null,
                "nullable": "YES"
            }
        },
        "fchaAct": {
            "type": "Date",
            "required": false,
            "length": null,
            "precision": null,
            "scale": null,
            "mssql": {
                "columnName": "fcha_act",
                "dataType": "datetime",
                "dataLength": null,
                "dataPrecision": null,
                "dataScale": null,
                "nullable": "YES"
            }
        },
        "idenUsr": {
            "type": "String",
            "required": false,
            "length": 30,
            "precision": null,
            "scale": null,
            "mssql": {
                "columnName": "iden_usr",
                "dataType": "varchar",
                "dataLength": 30,
                "dataPrecision": null,
                "dataScale": null,
                "nullable": "YES"
            }
        }
    }
}