{
  "name": "Origen",
  "options": {
    "idInjection": false,
    "mssql": {
      "schema": "dbo",
      "table": "Origen"
    }
  },
  "properties": {
    "codOri": {
      "type": "Number",
      "required": true,
      "length": null,
      "precision": 3,
      "scale": 0,
      "id": 1,
      "mssql": {
        "columnName": "Cod_ori",
        "dataType": "tinyint",
        "dataLength": null,
        "dataPrecision": 3,
        "dataScale": 0,
        "nullable": "NO"
      }
    },
    "desOri": {
      "type": "String",
      "required": true,
      "length": 25,
      "precision": null,
      "scale": null,
      "mssql": {
        "columnName": "Des_ori",
        "dataType": "char",
        "dataLength": 25,
        "dataPrecision": null,
        "dataScale": null,
        "nullable": "NO"
      }
    },
    "codCuenta": {
      "type": "String",
      "required": true,
      "length": 9,
      "precision": null,
      "scale": null,
      "mssql": {
        "columnName": "Cod_cuenta",
        "dataType": "char",
        "dataLength": 9,
        "dataPrecision": null,
        "dataScale": null,
        "nullable": "NO"
      }
    },
    "fchaAct": {
      "type": "Date",
      "required": true,
      "length": null,
      "precision": null,
      "scale": null,
      "mssql": {
        "columnName": "fcha_act",
        "dataType": "datetime",
        "dataLength": null,
        "dataPrecision": null,
        "dataScale": null,
        "nullable": "NO"
      }
    },
    "idenUsr": {
      "type": "String",
      "required": true,
      "length": 30,
      "precision": null,
      "scale": null,
      "mssql": {
        "columnName": "iden_usr",
        "dataType": "varchar",
        "dataLength": 30,
        "dataPrecision": null,
        "dataScale": null,
        "nullable": "NO"
      }
    }
  }
}