{
    "name": "Placas",
    "options": {
        "idInjection": true,
        "postgresql": {
            "schema": "public",
            "table": "placas"
        }
    },
    "properties": {
        "codPlaca": {
            "type": "String",
            "required": true,
            "length": null,
            "precision": null,
            "scale": null,
            "postgresql": {
                "columnName": "cod_placa",
                "dataType": "text",
                "dataLength": null,
                "dataPrecision": null,
                "dataScale": null,
                "nullable": "NO"
            }
        },
        "fecAlta": {
            "type": "String",
            "required": false,
            "length": null,
            "precision": null,
            "scale": null,
            "postgresql": {
                "columnName": "fec_alta",
                "dataType": "text",
                "dataLength": null,
                "dataPrecision": null,
                "dataScale": null,
                "nullable": "YES"
            }
        },
        "fecModif": {
            "type": "String",
            "required": false,
            "length": null,
            "precision": null,
            "scale": null,
            "postgresql": {
                "columnName": "fec_modif",
                "dataType": "text",
                "dataLength": null,
                "dataPrecision": null,
                "dataScale": null,
                "nullable": "YES"
            }
        },
        "fecBaja": {
            "type": "String",
            "required": false,
            "length": null,
            "precision": null,
            "scale": null,
            "postgresql": {
                "columnName": "fec_baja",
                "dataType": "text",
                "dataLength": null,
                "dataPrecision": null,
                "dataScale": null,
                "nullable": "YES"
            }
        },
        "tipo": {
            "type": "String",
            "required": false,
            "length": null,
            "precision": null,
            "scale": null,
            "postgresql": {
                "columnName": "tipo",
                "dataType": "text",
                "dataLength": null,
                "dataPrecision": null,
                "dataScale": null,
                "nullable": "YES"
            }
        },
        "version": {
            "type": "String",
            "required": false,
            "length": null,
            "precision": null,
            "scale": null,
            "postgresql": {
                "columnName": "version",
                "dataType": "text",
                "dataLength": null,
                "dataPrecision": null,
                "dataScale": null,
                "nullable": "YES"
            }
        },
        "marca": {
            "type": "String",
            "required": false,
            "length": null,
            "precision": null,
            "scale": null,
            "postgresql": {
                "columnName": "marca",
                "dataType": "text",
                "dataLength": null,
                "dataPrecision": null,
                "dataScale": null,
                "nullable": "YES"
            }
        },
        "tipoImp": {
            "type": "String",
            "required": false,
            "length": null,
            "precision": null,
            "scale": null,
            "postgresql": {
                "columnName": "tipo_imp",
                "dataType": "text",
                "dataLength": null,
                "dataPrecision": null,
                "dataScale": null,
                "nullable": "YES"
            }
        },
        "unidad": {
            "type": "String",
            "required": false,
            "length": null,
            "precision": null,
            "scale": null,
            "postgresql": {
                "columnName": "unidad",
                "dataType": "text",
                "dataLength": null,
                "dataPrecision": null,
                "dataScale": null,
                "nullable": "YES"
            }
        },
        "tecno": {
            "type": "String",
            "required": false,
            "length": null,
            "precision": null,
            "scale": null,
            "postgresql": {
                "columnName": "tecno",
                "dataType": "text",
                "dataLength": null,
                "dataPrecision": null,
                "dataScale": null,
                "nullable": "YES"
            }
        },
        "lote": {
            "type": "String",
            "required": false,
            "length": null,
            "precision": null,
            "scale": null,
            "postgresql": {
                "columnName": "lote",
                "dataType": "text",
                "dataLength": null,
                "dataPrecision": null,
                "dataScale": null,
                "nullable": "YES"
            }
        },
        "calibre": {
            "type": "String",
            "required": false,
            "length": null,
            "precision": null,
            "scale": null,
            "postgresql": {
                "columnName": "calibre",
                "dataType": "text",
                "dataLength": null,
                "dataPrecision": null,
                "dataScale": null,
                "nullable": "YES"
            }
        },
        "ancho": {
            "type": "String",
            "required": false,
            "length": null,
            "precision": null,
            "scale": null,
            "postgresql": {
                "columnName": "ancho",
                "dataType": "text",
                "dataLength": null,
                "dataPrecision": null,
                "dataScale": null,
                "nullable": "YES"
            }
        },
        "largo": {
            "type": "String",
            "required": false,
            "length": null,
            "precision": null,
            "scale": null,
            "postgresql": {
                "columnName": "largo",
                "dataType": "text",
                "dataLength": null,
                "dataPrecision": null,
                "dataScale": null,
                "nullable": "YES"
            }
        },
        "ptoMin": {
            "type": "String",
            "required": false,
            "length": null,
            "precision": null,
            "scale": null,
            "postgresql": {
                "columnName": "pto_min",
                "dataType": "text",
                "dataLength": null,
                "dataPrecision": null,
                "dataScale": null,
                "nullable": "YES"
            }
        },
        "curva": {
            "type": "String",
            "required": false,
            "length": null,
            "precision": null,
            "scale": null,
            "postgresql": {
                "columnName": "curva",
                "dataType": "text",
                "dataLength": null,
                "dataPrecision": null,
                "dataScale": null,
                "nullable": "YES"
            }
        },
        "enUso": {
            "type": "String",
            "required": false,
            "length": null,
            "precision": null,
            "scale": null,
            "postgresql": {
                "columnName": "en_uso",
                "dataType": "text",
                "dataLength": null,
                "dataPrecision": null,
                "dataScale": null,
                "nullable": "YES"
            }
        },
        "idPlaca": {
            "type": "Number",
            "required": false,
            "length": null,
            "precision": 32,
            "scale": 0,
            "id": true,
            "generated": true,
            "postgresql": {
                "columnName": "id_placa",
                "dataType": "integer",
                "dataLength": null,
                "dataPrecision": 32,
                "dataScale": 0,
                "nullable": "NO"
            }
        }
    }
}