{
    "name": "SolicCotiztp",
    "options": {
        "idInjection": true,
        "mssql": {
            "schema": "dbo",
            "table": "solic_cotiztp"
        }
    },
    "properties": {
        "id": false,

        "numsol": {
            "type": "Number",
            "required": true,
            "length": null,
            "precision": 8,
            "id": 1,
            "generated": false,
            "scale": 0,
            "mssql": {
                "columnName": "numsol",
                "dataType": "numeric",
                "dataLength": null,
                "dataPrecision": 8,
                "dataScale": 0,
                "nullable": "NO"
            }
        },
        "codClie": {
            "type": "String",
            "required": false,
            "length": 11,
            "precision": null,
            "scale": null,
            "mssql": {
                "columnName": "cod_clie",
                "dataType": "char",
                "dataLength": 11,
                "dataPrecision": null,
                "dataScale": null,
                "nullable": "YES"
            }
        },
        "sucClie": {
            "type": "String",
            "required": false,
            "length": 2,
            "precision": null,
            "scale": null,
            "mssql": {
                "columnName": "suc_clie",
                "dataType": "char",
                "dataLength": 2,
                "dataPrecision": null,
                "dataScale": null,
                "nullable": "YES"
            }
        },
        "noConta": {
            "type": "Number",
            "required": false,
            "length": null,
            "precision": 3,
            "scale": 0,
            "mssql": {
                "columnName": "no_conta",
                "dataType": "numeric",
                "dataLength": null,
                "dataPrecision": 3,
                "dataScale": 0,
                "nullable": "YES"
            }
        },
        "tolerancia": {
            "type": "Boolean",
            "required": false,
            "length": null,
            "precision": null,
            "scale": null,
            "mssql": {
                "columnName": "tolerancia",
                "dataType": "bit",
                "dataLength": null,
                "dataPrecision": null,
                "dataScale": null,
                "nullable": "YES"
            }
        },
        "codVend": {
            "type": "String",
            "required": false,
            "length": 4,
            "precision": null,
            "scale": null,
            "mssql": {
                "columnName": "cod_vend",
                "dataType": "char",
                "dataLength": 4,
                "dataPrecision": null,
                "dataScale": null,
                "nullable": "YES"
            }
        },
        "descripTrab": {
            "type": "String",
            "required": false,
            "length": 3000,
            "precision": null,
            "scale": null,
            "mssql": {
                "columnName": "descrip_trab",
                "dataType": "varchar",
                "dataLength": 3000,
                "dataPrecision": null,
                "dataScale": null,
                "nullable": "YES"
            }
        },
        "repPref": {
            "type": "String",
            "required": false,
            "length": 2,
            "precision": null,
            "scale": null,
            "mssql": {
                "columnName": "rep_pref",
                "dataType": "char",
                "dataLength": 2,
                "dataPrecision": null,
                "dataScale": null,
                "nullable": "YES"
            }
        },
        "repOrdproduc": {
            "type": "String",
            "required": false,
            "length": 10,
            "precision": null,
            "scale": null,
            "mssql": {
                "columnName": "rep_ordproduc",
                "dataType": "char",
                "dataLength": 10,
                "dataPrecision": null,
                "dataScale": null,
                "nullable": "YES"
            }
        },
        "materialRef": {
            "type": "Number",
            "required": false,
            "length": null,
            "precision": 1,
            "scale": 0,
            "mssql": {
                "columnName": "material_ref",
                "dataType": "numeric",
                "dataLength": null,
                "dataPrecision": 1,
                "dataScale": 0,
                "nullable": "YES"
            }
        },
        "acabado": {
            "type": "String",
            "required": false,
            "length": 10,
            "precision": null,
            "scale": null,
            "mssql": {
                "columnName": "acabado",
                "dataType": "char",
                "dataLength": 10,
                "dataPrecision": null,
                "dataScale": null,
                "nullable": "YES"
            }
        },
        "materialCalibre": {
            "type": "Number",
            "required": false,
            "length": null,
            "precision": 4,
            "scale": 1,
            "mssql": {
                "columnName": "material_calibre",
                "dataType": "numeric",
                "dataLength": null,
                "dataPrecision": 4,
                "dataScale": 1,
                "nullable": "YES"
            }
        },
        "materialOtro": {
            "type": "String",
            "required": false,
            "length": 50,
            "precision": null,
            "scale": null,
            "mssql": {
                "columnName": "material_otro",
                "dataType": "varchar",
                "dataLength": 50,
                "dataPrecision": null,
                "dataScale": null,
                "nullable": "YES"
            }
        },
        "fob": {
            "type": "Boolean",
            "required": false,
            "length": null,
            "precision": null,
            "scale": null,
            "mssql": {
                "columnName": "fob",
                "dataType": "bit",
                "dataLength": null,
                "dataPrecision": null,
                "dataScale": null,
                "nullable": "YES"
            }
        },
        "cip": {
            "type": "Boolean",
            "required": false,
            "length": null,
            "precision": null,
            "scale": null,
            "mssql": {
                "columnName": "cip",
                "dataType": "bit",
                "dataLength": null,
                "dataPrecision": null,
                "dataScale": null,
                "nullable": "YES"
            }
        },
        "otroPrec": {
            "type": "Boolean",
            "required": false,
            "length": null,
            "precision": null,
            "scale": null,
            "mssql": {
                "columnName": "otro_prec",
                "dataType": "bit",
                "dataLength": null,
                "dataPrecision": null,
                "dataScale": null,
                "nullable": "YES"
            }
        },
        "descripOtro": {
            "type": "String",
            "required": false,
            "length": 250,
            "precision": null,
            "scale": null,
            "mssql": {
                "columnName": "descrip_otro",
                "dataType": "varchar",
                "dataLength": 250,
                "dataPrecision": null,
                "dataScale": null,
                "nullable": "YES"
            }
        },
        "calibre": {
            "type": "Number",
            "required": false,
            "length": null,
            "precision": 18,
            "scale": 0,
            "mssql": {
                "columnName": "calibre",
                "dataType": "numeric",
                "dataLength": null,
                "dataPrecision": 18,
                "dataScale": 0,
                "nullable": "YES"
            }
        },
        "arte": {
            "type": "Boolean",
            "required": false,
            "length": null,
            "precision": null,
            "scale": null,
            "mssql": {
                "columnName": "arte",
                "dataType": "bit",
                "dataLength": null,
                "dataPrecision": null,
                "dataScale": null,
                "nullable": "YES"
            }
        },
        "correoe": {
            "type": "Boolean",
            "required": false,
            "length": null,
            "precision": null,
            "scale": null,
            "mssql": {
                "columnName": "correoe",
                "dataType": "bit",
                "dataLength": null,
                "dataPrecision": null,
                "dataScale": null,
                "nullable": "YES"
            }
        },
        "usb": {
            "type": "Boolean",
            "required": false,
            "length": null,
            "precision": null,
            "scale": null,
            "mssql": {
                "columnName": "usb",
                "dataType": "bit",
                "dataLength": null,
                "dataPrecision": null,
                "dataScale": null,
                "nullable": "YES"
            }
        },
        "cdrom": {
            "type": "Boolean",
            "required": false,
            "length": null,
            "precision": null,
            "scale": null,
            "mssql": {
                "columnName": "cdrom",
                "dataType": "bit",
                "dataLength": null,
                "dataPrecision": null,
                "dataScale": null,
                "nullable": "YES"
            }
        },
        "dvd": {
            "type": "Boolean",
            "required": false,
            "length": null,
            "precision": null,
            "scale": null,
            "mssql": {
                "columnName": "dvd",
                "dataType": "bit",
                "dataLength": null,
                "dataPrecision": null,
                "dataScale": null,
                "nullable": "YES"
            }
        },
        "otromag": {
            "type": "String",
            "required": false,
            "length": 50,
            "precision": null,
            "scale": null,
            "mssql": {
                "columnName": "otroMag",
                "dataType": "varchar",
                "dataLength": 50,
                "dataPrecision": null,
                "dataScale": null,
                "nullable": "YES"
            }
        },
        "tamAncho": {
            "type": "Number",
            "required": false,
            "length": null,
            "precision": 7,
            "scale": 2,
            "mssql": {
                "columnName": "tam_ancho",
                "dataType": "numeric",
                "dataLength": null,
                "dataPrecision": 7,
                "dataScale": 2,
                "nullable": "YES"
            }
        },
        "tamAlto": {
            "type": "Number",
            "required": false,
            "length": null,
            "precision": 7,
            "scale": 2,
            "mssql": {
                "columnName": "tam_alto",
                "dataType": "numeric",
                "dataLength": null,
                "dataPrecision": 7,
                "dataScale": 2,
                "nullable": "YES"
            }
        },
        "otroTam": {
            "type": "Boolean",
            "required": false,
            "length": null,
            "precision": null,
            "scale": null,
            "mssql": {
                "columnName": "otro_tam",
                "dataType": "bit",
                "dataLength": null,
                "dataPrecision": null,
                "dataScale": null,
                "nullable": "YES"
            }
        },
        "colTiro": {
            "type": "Number",
            "required": false,
            "length": null,
            "precision": 2,
            "scale": 0,
            "mssql": {
                "columnName": "col_tiro",
                "dataType": "numeric",
                "dataLength": null,
                "dataPrecision": 2,
                "dataScale": 0,
                "nullable": "YES"
            }
        },
        "colRetiro": {
            "type": "Number",
            "required": false,
            "length": null,
            "precision": 2,
            "scale": 0,
            "mssql": {
                "columnName": "col_retiro",
                "dataType": "numeric",
                "dataLength": null,
                "dataPrecision": 2,
                "dataScale": 0,
                "nullable": "YES"
            }
        },
        "colorTiro": {
            "type": "String",
            "required": false,
            "length": 10,
            "precision": null,
            "scale": null,
            "mssql": {
                "columnName": "color_tiro",
                "dataType": "char",
                "dataLength": 10,
                "dataPrecision": null,
                "dataScale": null,
                "nullable": "YES"
            }
        },
        "colorRetiro": {
            "type": "String",
            "required": false,
            "length": 10,
            "precision": null,
            "scale": null,
            "mssql": {
                "columnName": "color_retiro",
                "dataType": "char",
                "dataLength": 10,
                "dataPrecision": null,
                "dataScale": null,
                "nullable": "YES"
            }
        },
        "uvTiro": {
            "type": "Boolean",
            "required": false,
            "length": null,
            "precision": null,
            "scale": null,
            "mssql": {
                "columnName": "uv_tiro",
                "dataType": "bit",
                "dataLength": null,
                "dataPrecision": null,
                "dataScale": null,
                "nullable": "YES"
            }
        },
        "uvRetiro": {
            "type": "Boolean",
            "required": false,
            "length": null,
            "precision": null,
            "scale": null,
            "mssql": {
                "columnName": "uv_retiro",
                "dataType": "bit",
                "dataLength": null,
                "dataPrecision": null,
                "dataScale": null,
                "nullable": "YES"
            }
        },
        "nitroTiro": {
            "type": "Boolean",
            "required": false,
            "length": null,
            "precision": null,
            "scale": null,
            "mssql": {
                "columnName": "nitro_tiro",
                "dataType": "bit",
                "dataLength": null,
                "dataPrecision": null,
                "dataScale": null,
                "nullable": "YES"
            }
        },
        "nitroRetiro": {
            "type": "Boolean",
            "required": false,
            "length": null,
            "precision": null,
            "scale": null,
            "mssql": {
                "columnName": "nitro_retiro",
                "dataType": "bit",
                "dataLength": null,
                "dataPrecision": null,
                "dataScale": null,
                "nullable": "YES"
            }
        },
        "invisible": {
            "type": "Boolean",
            "required": false,
            "length": null,
            "precision": null,
            "scale": null,
            "mssql": {
                "columnName": "invisible",
                "dataType": "bit",
                "dataLength": null,
                "dataPrecision": null,
                "dataScale": null,
                "nullable": "YES"
            }
        },
        "invisibler": {
            "type": "Boolean",
            "required": false,
            "length": null,
            "precision": null,
            "scale": null,
            "mssql": {
                "columnName": "invisibleR",
                "dataType": "bit",
                "dataLength": null,
                "dataPrecision": null,
                "dataScale": null,
                "nullable": "YES"
            }
        },
        "cant1": {
            "type": "Number",
            "required": false,
            "length": null,
            "precision": 9,
            "scale": 0,
            "mssql": {
                "columnName": "cant1",
                "dataType": "numeric",
                "dataLength": null,
                "dataPrecision": 9,
                "dataScale": 0,
                "nullable": "YES"
            }
        },
        "cant2": {
            "type": "Number",
            "required": false,
            "length": null,
            "precision": 9,
            "scale": 0,
            "mssql": {
                "columnName": "cant2",
                "dataType": "numeric",
                "dataLength": null,
                "dataPrecision": 9,
                "dataScale": 0,
                "nullable": "YES"
            }
        },
        "cant3": {
            "type": "Number",
            "required": false,
            "length": null,
            "precision": 9,
            "scale": 0,
            "mssql": {
                "columnName": "cant3",
                "dataType": "numeric",
                "dataLength": null,
                "dataPrecision": 9,
                "dataScale": 0,
                "nullable": "YES"
            }
        },
        "cant4": {
            "type": "Number",
            "required": false,
            "length": null,
            "precision": 9,
            "scale": 0,
            "mssql": {
                "columnName": "cant4",
                "dataType": "numeric",
                "dataLength": null,
                "dataPrecision": 9,
                "dataScale": 0,
                "nullable": "YES"
            }
        },
        "cant5": {
            "type": "Number",
            "required": false,
            "length": null,
            "precision": 9,
            "scale": 0,
            "mssql": {
                "columnName": "cant5",
                "dataType": "numeric",
                "dataLength": null,
                "dataPrecision": 9,
                "dataScale": 0,
                "nullable": "YES"
            }
        },
        "cant6": {
            "type": "Number",
            "required": false,
            "length": null,
            "precision": 9,
            "scale": 0,
            "mssql": {
                "columnName": "cant6",
                "dataType": "numeric",
                "dataLength": null,
                "dataPrecision": 9,
                "dataScale": 0,
                "nullable": "YES"
            }
        },
        "sangrado": {
            "type": "Boolean",
            "required": false,
            "length": null,
            "precision": null,
            "scale": null,
            "mssql": {
                "columnName": "sangrado",
                "dataType": "bit",
                "dataLength": null,
                "dataPrecision": null,
                "dataScale": null,
                "nullable": "YES"
            }
        },
        "sangradoCaras": {
            "type": "Number",
            "required": false,
            "length": null,
            "precision": 2,
            "scale": 0,
            "mssql": {
                "columnName": "sangrado_caras",
                "dataType": "numeric",
                "dataLength": null,
                "dataPrecision": 2,
                "dataScale": 0,
                "nullable": "YES"
            }
        },
        "banMag": {
            "type": "Boolean",
            "required": false,
            "length": null,
            "precision": null,
            "scale": null,
            "mssql": {
                "columnName": "ban_mag",
                "dataType": "bit",
                "dataLength": null,
                "dataPrecision": null,
                "dataScale": null,
                "nullable": "YES"
            }
        },
        "banMagAlto": {
            "type": "Boolean",
            "required": false,
            "length": null,
            "precision": null,
            "scale": null,
            "mssql": {
                "columnName": "ban_mag_alto",
                "dataType": "bit",
                "dataLength": null,
                "dataPrecision": null,
                "dataScale": null,
                "nullable": "YES"
            }
        },
        "banMagCol": {
            "type": "String",
            "required": false,
            "length": 50,
            "precision": null,
            "scale": null,
            "mssql": {
                "columnName": "ban_mag_col",
                "dataType": "varchar",
                "dataLength": 50,
                "dataPrecision": null,
                "dataScale": null,
                "nullable": "YES"
            }
        },
        "banMagColAlto": {
            "type": "Boolean",
            "required": false,
            "length": null,
            "precision": null,
            "scale": null,
            "mssql": {
                "columnName": "ban_mag_col_alto",
                "dataType": "bit",
                "dataLength": null,
                "dataPrecision": null,
                "dataScale": null,
                "nullable": "YES"
            }
        },
        "panelFir": {
            "type": "Boolean",
            "required": false,
            "length": null,
            "precision": null,
            "scale": null,
            "mssql": {
                "columnName": "panel_fir",
                "dataType": "bit",
                "dataLength": null,
                "dataPrecision": null,
                "dataScale": null,
                "nullable": "YES"
            }
        },
        "panelFirV": {
            "type": "Boolean",
            "required": false,
            "length": null,
            "precision": null,
            "scale": null,
            "mssql": {
                "columnName": "panel_fir_v",
                "dataType": "bit",
                "dataLength": null,
                "dataPrecision": null,
                "dataScale": null,
                "nullable": "YES"
            }
        },
        "panelFirM": {
            "type": "Boolean",
            "required": false,
            "length": null,
            "precision": null,
            "scale": null,
            "mssql": {
                "columnName": "panel_fir_m",
                "dataType": "bit",
                "dataLength": null,
                "dataPrecision": null,
                "dataScale": null,
                "nullable": "YES"
            }
        },
        "panelFirO": {
            "type": "String",
            "required": false,
            "length": 50,
            "precision": null,
            "scale": null,
            "mssql": {
                "columnName": "panel_fir_o",
                "dataType": "varchar",
                "dataLength": 50,
                "dataPrecision": null,
                "dataScale": null,
                "nullable": "YES"
            }
        },
        "kinegram": {
            "type": "Boolean",
            "required": false,
            "length": null,
            "precision": null,
            "scale": null,
            "mssql": {
                "columnName": "kinegram",
                "dataType": "bit",
                "dataLength": null,
                "dataPrecision": null,
                "dataScale": null,
                "nullable": "YES"
            }
        },
        "kinegramV": {
            "type": "Boolean",
            "required": false,
            "length": null,
            "precision": null,
            "scale": null,
            "mssql": {
                "columnName": "kinegram_v",
                "dataType": "bit",
                "dataLength": null,
                "dataPrecision": null,
                "dataScale": null,
                "nullable": "YES"
            }
        },
        "kinegramM": {
            "type": "Boolean",
            "required": false,
            "length": null,
            "precision": null,
            "scale": null,
            "mssql": {
                "columnName": "kinegram_m",
                "dataType": "bit",
                "dataLength": null,
                "dataPrecision": null,
                "dataScale": null,
                "nullable": "YES"
            }
        },
        "kinegramO": {
            "type": "String",
            "required": false,
            "length": 50,
            "precision": null,
            "scale": null,
            "mssql": {
                "columnName": "kinegram_o",
                "dataType": "varchar",
                "dataLength": 50,
                "dataPrecision": null,
                "dataScale": null,
                "nullable": "YES"
            }
        },
        "holo": {
            "type": "Boolean",
            "required": false,
            "length": null,
            "precision": null,
            "scale": null,
            "mssql": {
                "columnName": "holo",
                "dataType": "bit",
                "dataLength": null,
                "dataPrecision": null,
                "dataScale": null,
                "nullable": "YES"
            }
        },
        "holoV": {
            "type": "Boolean",
            "required": false,
            "length": null,
            "precision": null,
            "scale": null,
            "mssql": {
                "columnName": "holo_v",
                "dataType": "bit",
                "dataLength": null,
                "dataPrecision": null,
                "dataScale": null,
                "nullable": "YES"
            }
        },
        "holoM": {
            "type": "Boolean",
            "required": false,
            "length": null,
            "precision": null,
            "scale": null,
            "mssql": {
                "columnName": "holo_m",
                "dataType": "bit",
                "dataLength": null,
                "dataPrecision": null,
                "dataScale": null,
                "nullable": "YES"
            }
        },
        "holoMv": {
            "type": "Boolean",
            "required": false,
            "length": null,
            "precision": null,
            "scale": null,
            "mssql": {
                "columnName": "holo_mv",
                "dataType": "bit",
                "dataLength": null,
                "dataPrecision": null,
                "dataScale": null,
                "nullable": "YES"
            }
        },
        "holoO": {
            "type": "String",
            "required": false,
            "length": 50,
            "precision": null,
            "scale": null,
            "mssql": {
                "columnName": "holo_o",
                "dataType": "varchar",
                "dataLength": 50,
                "dataPrecision": null,
                "dataScale": null,
                "nullable": "YES"
            }
        },
        "codbar": {
            "type": "Boolean",
            "required": false,
            "length": null,
            "precision": null,
            "scale": null,
            "mssql": {
                "columnName": "codbar",
                "dataType": "bit",
                "dataLength": null,
                "dataPrecision": null,
                "dataScale": null,
                "nullable": "YES"
            }
        },
        "codbarInkdig": {
            "type": "Boolean",
            "required": false,
            "length": null,
            "precision": null,
            "scale": null,
            "mssql": {
                "columnName": "codbar_inkdig",
                "dataType": "bit",
                "dataLength": null,
                "dataPrecision": null,
                "dataScale": null,
                "nullable": "YES"
            }
        },
        "codbarDig": {
            "type": "Boolean",
            "required": false,
            "length": null,
            "precision": null,
            "scale": null,
            "mssql": {
                "columnName": "codbar_dig",
                "dataType": "bit",
                "dataLength": null,
                "dataPrecision": null,
                "dataScale": null,
                "nullable": "YES"
            }
        },
        "codbarDod": {
            "type": "Boolean",
            "required": false,
            "length": null,
            "precision": null,
            "scale": null,
            "mssql": {
                "columnName": "codbar_dod",
                "dataType": "bit",
                "dataLength": null,
                "dataPrecision": null,
                "dataScale": null,
                "nullable": "YES"
            }
        },
        "num": {
            "type": "Boolean",
            "required": false,
            "length": null,
            "precision": null,
            "scale": null,
            "mssql": {
                "columnName": "num",
                "dataType": "bit",
                "dataLength": null,
                "dataPrecision": null,
                "dataScale": null,
                "nullable": "YES"
            }
        },
        "numInk": {
            "type": "Boolean",
            "required": false,
            "length": null,
            "precision": null,
            "scale": null,
            "mssql": {
                "columnName": "num_ink",
                "dataType": "bit",
                "dataLength": null,
                "dataPrecision": null,
                "dataScale": null,
                "nullable": "YES"
            }
        },
        "numDig": {
            "type": "Boolean",
            "required": false,
            "length": null,
            "precision": null,
            "scale": null,
            "mssql": {
                "columnName": "num_dig",
                "dataType": "bit",
                "dataLength": null,
                "dataPrecision": null,
                "dataScale": null,
                "nullable": "YES"
            }
        },
        "numInd": {
            "type": "Boolean",
            "required": false,
            "length": null,
            "precision": null,
            "scale": null,
            "mssql": {
                "columnName": "num_ind",
                "dataType": "bit",
                "dataLength": null,
                "dataPrecision": null,
                "dataScale": null,
                "nullable": "YES"
            }
        },
        "numCaras": {
            "type": "Number",
            "required": false,
            "length": null,
            "precision": 2,
            "scale": 0,
            "mssql": {
                "columnName": "num_caras",
                "dataType": "numeric",
                "dataLength": null,
                "dataPrecision": 2,
                "dataScale": 0,
                "nullable": "YES"
            }
        },
        "scrat": {
            "type": "Boolean",
            "required": false,
            "length": null,
            "precision": null,
            "scale": null,
            "mssql": {
                "columnName": "scrat",
                "dataType": "bit",
                "dataLength": null,
                "dataPrecision": null,
                "dataScale": null,
                "nullable": "YES"
            }
        },
        "scratStic": {
            "type": "Boolean",
            "required": false,
            "length": null,
            "precision": null,
            "scale": null,
            "mssql": {
                "columnName": "scrat_stic",
                "dataType": "bit",
                "dataLength": null,
                "dataPrecision": null,
                "dataScale": null,
                "nullable": "YES"
            }
        },
        "scratEst": {
            "type": "Boolean",
            "required": false,
            "length": null,
            "precision": null,
            "scale": null,
            "mssql": {
                "columnName": "scrat_est",
                "dataType": "bit",
                "dataLength": null,
                "dataPrecision": null,
                "dataScale": null,
                "nullable": "YES"
            }
        },
        "scratSer": {
            "type": "Boolean",
            "required": false,
            "length": null,
            "precision": null,
            "scale": null,
            "mssql": {
                "columnName": "scrat_ser",
                "dataType": "bit",
                "dataLength": null,
                "dataPrecision": null,
                "dataScale": null,
                "nullable": "YES"
            }
        },
        "descripSer": {
            "type": "String",
            "required": false,
            "length": 50,
            "precision": null,
            "scale": null,
            "mssql": {
                "columnName": "descrip_ser",
                "dataType": "varchar",
                "dataLength": 50,
                "dataPrecision": null,
                "dataScale": null,
                "nullable": "YES"
            }
        },
        "chip": {
            "type": "String",
            "required": false,
            "length": 50,
            "precision": null,
            "scale": null,
            "mssql": {
                "columnName": "chip",
                "dataType": "varchar",
                "dataLength": 50,
                "dataPrecision": null,
                "dataScale": null,
                "nullable": "YES"
            }
        },
        "modDorpla": {
            "type": "Boolean",
            "required": false,
            "length": null,
            "precision": null,
            "scale": null,
            "mssql": {
                "columnName": "mod_dorpla",
                "dataType": "bit",
                "dataLength": null,
                "dataPrecision": null,
                "dataScale": null,
                "nullable": "YES"
            }
        },
        "hotstam": {
            "type": "Boolean",
            "required": false,
            "length": null,
            "precision": null,
            "scale": null,
            "mssql": {
                "columnName": "hotstam",
                "dataType": "bit",
                "dataLength": null,
                "dataPrecision": null,
                "dataScale": null,
                "nullable": "YES"
            }
        },
        "bolsaPoli": {
            "type": "Boolean",
            "required": false,
            "length": null,
            "precision": null,
            "scale": null,
            "mssql": {
                "columnName": "bolsa_poli",
                "dataType": "bit",
                "dataLength": null,
                "dataPrecision": null,
                "dataScale": null,
                "nullable": "YES"
            }
        },
        "bolsaPoliDes": {
            "type": "String",
            "required": false,
            "length": 50,
            "precision": null,
            "scale": null,
            "mssql": {
                "columnName": "bolsa_poli_des",
                "dataType": "varchar",
                "dataLength": 50,
                "dataPrecision": null,
                "dataScale": null,
                "nullable": "YES"
            }
        },
        "perzonaliCaras1": {
            "type": "Boolean",
            "required": false,
            "length": null,
            "precision": null,
            "scale": null,
            "mssql": {
                "columnName": "perzonali_caras1",
                "dataType": "bit",
                "dataLength": null,
                "dataPrecision": null,
                "dataScale": null,
                "nullable": "YES"
            }
        },
        "perzonaliCaras2": {
            "type": "Boolean",
            "required": false,
            "length": null,
            "precision": null,
            "scale": null,
            "mssql": {
                "columnName": "perzonali_caras2",
                "dataType": "bit",
                "dataLength": null,
                "dataPrecision": null,
                "dataScale": null,
                "nullable": "YES"
            }
        },
        "realceocod": {
            "type": "Boolean",
            "required": false,
            "length": null,
            "precision": null,
            "scale": null,
            "mssql": {
                "columnName": "realceocod",
                "dataType": "bit",
                "dataLength": null,
                "dataPrecision": null,
                "dataScale": null,
                "nullable": "YES"
            }
        },
        "termoocod": {
            "type": "Boolean",
            "required": false,
            "length": null,
            "precision": null,
            "scale": null,
            "mssql": {
                "columnName": "termoocod",
                "dataType": "bit",
                "dataLength": null,
                "dataPrecision": null,
                "dataScale": null,
                "nullable": "YES"
            }
        },
        "realce": {
            "type": "Boolean",
            "required": false,
            "length": null,
            "precision": null,
            "scale": null,
            "mssql": {
                "columnName": "realce",
                "dataType": "bit",
                "dataLength": null,
                "dataPrecision": null,
                "dataScale": null,
                "nullable": "YES"
            }
        },
        "termo": {
            "type": "Boolean",
            "required": false,
            "length": null,
            "precision": null,
            "scale": null,
            "mssql": {
                "columnName": "termo",
                "dataType": "bit",
                "dataLength": null,
                "dataPrecision": null,
                "dataScale": null,
                "nullable": "YES"
            }
        },
        "persoChip": {
            "type": "Boolean",
            "required": false,
            "length": null,
            "precision": null,
            "scale": null,
            "mssql": {
                "columnName": "perso_chip",
                "dataType": "bit",
                "dataLength": null,
                "dataPrecision": null,
                "dataScale": null,
                "nullable": "YES"
            }
        },
        "preiniChip": {
            "type": "Boolean",
            "required": false,
            "length": null,
            "precision": null,
            "scale": null,
            "mssql": {
                "columnName": "preini_chip",
                "dataType": "bit",
                "dataLength": null,
                "dataPrecision": null,
                "dataScale": null,
                "nullable": "YES"
            }
        },
        "indent": {
            "type": "Boolean",
            "required": false,
            "length": null,
            "precision": null,
            "scale": null,
            "mssql": {
                "columnName": "indent",
                "dataType": "bit",
                "dataLength": null,
                "dataPrecision": null,
                "dataScale": null,
                "nullable": "YES"
            }
        },
        "codifi": {
            "type": "Boolean",
            "required": false,
            "length": null,
            "precision": null,
            "scale": null,
            "mssql": {
                "columnName": "codifi",
                "dataType": "bit",
                "dataLength": null,
                "dataPrecision": null,
                "dataScale": null,
                "nullable": "YES"
            }
        },
        "foto": {
            "type": "Boolean",
            "required": false,
            "length": null,
            "precision": null,
            "scale": null,
            "mssql": {
                "columnName": "foto",
                "dataType": "bit",
                "dataLength": null,
                "dataPrecision": null,
                "dataScale": null,
                "nullable": "YES"
            }
        },
        "perDig": {
            "type": "Boolean",
            "required": false,
            "length": null,
            "precision": null,
            "scale": null,
            "mssql": {
                "columnName": "per_dig",
                "dataType": "bit",
                "dataLength": null,
                "dataPrecision": null,
                "dataScale": null,
                "nullable": "YES"
            }
        },
        "custodia": {
            "type": "Boolean",
            "required": false,
            "length": null,
            "precision": null,
            "scale": null,
            "mssql": {
                "columnName": "custodia",
                "dataType": "bit",
                "dataLength": null,
                "dataPrecision": null,
                "dataScale": null,
                "nullable": "YES"
            }
        },
        "observa": {
            "type": "String",
            "required": false,
            "length": 2000,
            "precision": null,
            "scale": null,
            "mssql": {
                "columnName": "observa",
                "dataType": "varchar",
                "dataLength": 2000,
                "dataPrecision": null,
                "dataScale": null,
                "nullable": "YES"
            }
        },
        "fchaSolic": {
            "type": "Date",
            "required": false,
            "length": null,
            "precision": null,
            "scale": null,
            "mssql": {
                "columnName": "fcha_solic",
                "dataType": "datetime",
                "dataLength": null,
                "dataPrecision": null,
                "dataScale": null,
                "nullable": "YES"
            }
        },
        "fchaEstado": {
            "type": "Date",
            "required": false,
            "length": null,
            "precision": null,
            "scale": null,
            "mssql": {
                "columnName": "fcha_estado",
                "dataType": "datetime",
                "dataLength": null,
                "dataPrecision": null,
                "dataScale": null,
                "nullable": "YES"
            }
        },
        "idenEstado": {
            "type": "String",
            "required": false,
            "length": 30,
            "precision": null,
            "scale": null,
            "mssql": {
                "columnName": "iden_estado",
                "dataType": "varchar",
                "dataLength": 30,
                "dataPrecision": null,
                "dataScale": null,
                "nullable": "YES"
            }
        },
        "idenUsr": {
            "type": "String",
            "required": false,
            "length": 30,
            "precision": null,
            "scale": null,
            "mssql": {
                "columnName": "iden_usr",
                "dataType": "varchar",
                "dataLength": 30,
                "dataPrecision": null,
                "dataScale": null,
                "nullable": "YES"
            }
        },
        "fchaAct": {
            "type": "Date",
            "required": false,
            "length": null,
            "precision": null,
            "scale": null,
            "mssql": {
                "columnName": "fcha_act",
                "dataType": "datetime",
                "dataLength": null,
                "dataPrecision": null,
                "dataScale": null,
                "nullable": "YES"
            }
        }
    },
    "relations": {
        "SoliccotizToCliente": {
            "type": "belongsTo",
            "model": "Clientes",
            "foreignKey": "codClie"
        }
    }
}