{
    "name": "SolicAgr",
    "options": {
        "idInjection": false,
        "mssql": {
            "schema": "dbo",
            "table": "solic_agr"
        }
    },
    "properties": {
        "codAgr": {
            "type": "Number",
            "required": true,
            "length": null,
            "precision": 2,
            "scale": 0,
            "id": true,
            "mssql": {
                "columnName": "cod_agr",
                "dataType": "numeric",
                "dataLength": null,
                "dataPrecision": 2,
                "dataScale": 0,
                "nullable": "NO"
            }
        },
        "descripAgr": {
            "type": "String",
            "required": false,
            "length": 50,
            "precision": null,
            "scale": null,
            "mssql": {
                "columnName": "descrip_agr",
                "dataType": "varchar",
                "dataLength": 50,
                "dataPrecision": null,
                "dataScale": null,
                "nullable": "YES"
            }
        },
        "modificaCnt": {
            "type": "Boolean",
            "required": false,
            "length": null,
            "precision": null,
            "scale": null,
            "mssql": {
                "columnName": "modifica_cnt",
                "dataType": "bit",
                "dataLength": null,
                "dataPrecision": null,
                "dataScale": null,
                "nullable": "YES"
            }
        }
    }
}