{
    "name": "Tabmonedas",
    "options": {
        "idInjection": false,
        "mssql": {
            "schema": "dbo",
            "table": "tabmonedas"
        }
    },
    "properties": {
        "moneda": {
            "type": "String",
            "required": true,
            "length": 5,
            "id": true,
            "precision": null,
            "scale": null,
            "mssql": {
                "columnName": "moneda",
                "dataType": "char",
                "dataLength": 5,
                "dataPrecision": null,
                "dataScale": null,
                "nullable": "NO"
            }
        },
        "desMoneda": {
            "type": "String",
            "required": true,
            "length": 20,
            "precision": null,
            "scale": null,
            "mssql": {
                "columnName": "des_moneda",
                "dataType": "char",
                "dataLength": 20,
                "dataPrecision": null,
                "dataScale": null,
                "nullable": "NO"
            }
        },
        "siTasa": {
            "type": "Boolean",
            "required": true,
            "length": null,
            "precision": null,
            "scale": null,
            "mssql": {
                "columnName": "si_tasa",
                "dataType": "bit",
                "dataLength": null,
                "dataPrecision": null,
                "dataScale": null,
                "nullable": "NO"
            }
        },
        "sysbol": {
            "type": "String",
            "required": true,
            "length": 5,
            "precision": null,
            "scale": null,
            "mssql": {
                "columnName": "sysbol",
                "dataType": "char",
                "dataLength": 5,
                "dataPrecision": null,
                "dataScale": null,
                "nullable": "NO"
            }
        },
        "fchaAct": {
            "type": "Date",
            "required": false,
            "length": null,
            "precision": null,
            "scale": null,
            "mssql": {
                "columnName": "fcha_act",
                "dataType": "datetime",
                "dataLength": null,
                "dataPrecision": null,
                "dataScale": null,
                "nullable": "YES"
            }
        },
        "idenUsr": {
            "type": "String",
            "required": false,
            "length": 30,
            "precision": null,
            "scale": null,
            "mssql": {
                "columnName": "iden_usr",
                "dataType": "varchar",
                "dataLength": 30,
                "dataPrecision": null,
                "dataScale": null,
                "nullable": "YES"
            }
        }
    }
}