{
  "name": "TipClie",
  "options": {
    "idInjection": false,
    "mssql": {
      "schema": "dbo",
      "table": "Tip_clie"
    }
  },
  "properties": {
    "codTclie": {
      "type": "String",
      "required": true,
      "length": 1,
      "precision": null,
      "scale": null,
      "id": 1,
      "mssql": {
        "columnName": "cod_tclie",
        "dataType": "char",
        "dataLength": 1,
        "dataPrecision": null,
        "dataScale": null,
        "nullable": "NO"
      }
    },
    "descripTclie": {
      "type": "String",
      "required": true,
      "length": 30,
      "precision": null,
      "scale": null,
      "mssql": {
        "columnName": "descrip_tclie",
        "dataType": "varchar",
        "dataLength": 30,
        "dataPrecision": null,
        "dataScale": null,
        "nullable": "NO"
      }
    }
  }
}