{
    "name": "TipProd",
    "options": {
        "idInjection": false,
        "mssql": {
            "schema": "dbo",
            "table": "Tip_Prod"
        }
    },
    "properties": {
        "tipPrd": {
            "type": "String",
            "required": true,
            "length": 1,
            "id": 1,
            "precision": null,
            "scale": null,
            "mssql": {
                "columnName": "Tip_prd",
                "dataType": "char",
                "dataLength": 1,
                "dataPrecision": null,
                "dataScale": null,
                "nullable": "NO"
            }
        },
        "nomPrd": {
            "type": "String",
            "required": true,
            "length": 50,
            "precision": null,
            "scale": null,
            "mssql": {
                "columnName": "Nom_prd",
                "dataType": "varchar",
                "dataLength": 50,
                "dataPrecision": null,
                "dataScale": null,
                "nullable": "NO"
            }
        },
        "fchaAct": {
            "type": "Date",
            "required": true,
            "length": null,
            "precision": null,
            "scale": null,
            "mssql": {
                "columnName": "Fcha_act",
                "dataType": "datetime",
                "dataLength": null,
                "dataPrecision": null,
                "dataScale": null,
                "nullable": "NO"
            }
        },
        "idenUsr": {
            "type": "String",
            "required": false,
            "length": 50,
            "precision": null,
            "scale": null,
            "mssql": {
                "columnName": "Iden_usr",
                "dataType": "varchar",
                "dataLength": 50,
                "dataPrecision": null,
                "dataScale": null,
                "nullable": "YES"
            }
        }
    }
}